%YAML 1.1
%TAG !u! tag:unity3d.com,2011:
--- !u!1045 &1
EditorBuildSettings:
  m_ObjectHideFlags: 0
  serializedVersion: 2
  m_Scenes:
  - enabled: 1
    path: Assets/Scenes/ranch-overview.unity
    guid: 2cda990e2423bbf4892e6590ba056729
  - enabled: 1
    path: Assets/Scenes/stable.unity
    guid: a811c337234d93b4b88bd9813ae3b38d
  - enabled: 1
    path: Assets/Scenes/nursery.unity
    guid: 6664f1181ffd60d419b42fa15242f844
  m_configObjects: {}
