{
  "protocol_version" : "0.0.6",
  "configuration" : {
    "version" : "(6.12.0.122) (tarball)",
    "tlc" : "__thread",
    "sigsgev" : "altstack",
    "notifications" : "epoll",
    "architecture" : "amd64",
    "disabled_features" : "none",
    "smallconfig" : "disabled",
    "bigarrays" : "disabled",
    "softdebug" : "enabled",
    "interpreter" : "enabled",
    "llvm_support" : "610",
    "suspend" : "hybrid"
  },
  "memory" : {
    "minor_gc_time" : "3303656",
    "major_gc_time" : "691534",
    "minor_gc_count" : "112",
    "major_gc_count" : "5",
    "major_gc_time_concurrent" : "2826184"
 },
  "threads" : [
 {
    "is_managed" : false,
    "offset_free_hash" : "0x0",
    "offset_rich_hash" : "0x0",
    "crashed" : false,
    "native_thread_id" : "0x7f5a4d36b700",
    "thread_info_addr" : "0x7f5a40000b60",
    "thread_name" : "Thread Pool Wor",
    "ctx" : {
      "IP" : "0x7f5a729cd618",
      "SP" : "0x7f5a4d36ac70",
      "BP" : "0x559018cc1d88"
  },
    "unmanaged_frames" : [
  {
      "is_managed" : "false",
      "native_address" : "0x559018892b52",
      "native_offset" : "0x00000"
   }
,
  {
      "is_managed" : "false",
      "native_address" : "0x559018a88b39",
      "native_offset" : "0x00000"
   }
,
  {
      "is_managed" : "false",
      "native_address" : "0x559018a89d42",
      "native_offset" : "0x00000"
   }
,
  {
      "is_managed" : "false",
      "native_address" : "0x559018a93247",
      "native_offset" : "0x00000"
   }
,
  {
      "is_managed" : "false",
      "native_address" : "0x5590188e70df",
      "native_offset" : "0x00000"
   }
,
  {
      "is_managed" : "false",
      "native_address" : "0x7f5a729cf3c0",
      "native_offset" : "0x00000"
   }
,
  {
      "is_managed" : "false",
      "native_address" : "0x7f5a729cd618",
      "native_offset" : "0x00000"
   }
,
  {
      "is_managed" : "false",
      "native_address" : "0x7f5a729cd743",
      "native_offset" : "0x00000"
   }
,
  {
      "is_managed" : "false",
      "native_address" : "0x559018ae52b8",
      "native_offset" : "0x00000"
   }
,
  {
      "is_managed" : "false",
      "native_address" : "0x559018a92afa",
      "native_offset" : "0x00000"
   }
,
  {
      "is_managed" : "false",
      "native_address" : "0x7f5a729c3609",
      "native_offset" : "0x00000"
   }
,
  {
      "is_managed" : "false",
      "native_address" : "0x7f5a7259c293",
      "native_offset" : "0x00000"
   }

  ]
 },
 {
    "is_managed" : true,
    "offset_free_hash" : "0x82afe3458",
    "offset_rich_hash" : "0x82afe3535",
    "crashed" : false,
    "native_thread_id" : "0x7f5a6dc0b700",
    "thread_info_addr" : "0x7f5a5c000b60",
    "thread_name" : "Thread Pool Wor",
    "ctx" : {
      "IP" : "0x7f5a729ce36c",
      "SP" : "0x7f5a6dc0a0e0",
      "BP" : "0x7f5a6dc0a120"
  },
    "managed_frames" : [
  {
      "is_managed" : "false",
      "native_address" : "unregistered"
   }
,
  {
      "is_managed" : "true",
      "guid" : "533173D2-4DAE-4608-99D2-B10975534BB0",
      "token" : "0x00000",
      "native_offset" : "0x0",
      "filename" : "mscorlib.dll",
      "sizeofimage" : "0x472000",
      "timestamp" : "0x99dbfea7",
      "il_offset" : "0x00000"
   }
,
  {
      "is_managed" : "true",
      "guid" : "533173D2-4DAE-4608-99D2-B10975534BB0",
      "token" : "0x600548d",
      "native_offset" : "0x0",
      "filename" : "mscorlib.dll",
      "sizeofimage" : "0x472000",
      "timestamp" : "0x99dbfea7",
      "il_offset" : "0x00000"
   }
,
  {
      "is_managed" : "true",
      "guid" : "533173D2-4DAE-4608-99D2-B10975534BB0",
      "token" : "0x00000",
      "native_offset" : "0x0",
      "filename" : "mscorlib.dll",
      "sizeofimage" : "0x472000",
      "timestamp" : "0x99dbfea7",
      "il_offset" : "0x0000a"
   }
,
  {
      "is_managed" : "true",
      "guid" : "533173D2-4DAE-4608-99D2-B10975534BB0",
      "token" : "0x600548f",
      "native_offset" : "0x0",
      "filename" : "mscorlib.dll",
      "sizeofimage" : "0x472000",
      "timestamp" : "0x99dbfea7",
      "il_offset" : "0x00000"
   }
,
  {
      "is_managed" : "true",
      "guid" : "533173D2-4DAE-4608-99D2-B10975534BB0",
      "token" : "0x00000",
      "native_offset" : "0x0",
      "filename" : "mscorlib.dll",
      "sizeofimage" : "0x472000",
      "timestamp" : "0x99dbfea7",
      "il_offset" : "0x0000a"
   }
,
  {
      "is_managed" : "true",
      "guid" : "33A2C96F-EFBF-4A93-A109-12AE0F8EE39E",
      "token" : "0x600001e",
      "native_offset" : "0x0",
      "filename" : "OmniSharp.Stdio.dll",
      "sizeofimage" : "0xc000",
      "timestamp" : "0xcbac4161",
      "il_offset" : "0x00048"
   }
,
  {
      "is_managed" : "true",
      "guid" : "533173D2-4DAE-4608-99D2-B10975534BB0",
      "token" : "0x600460e",
      "native_offset" : "0x0",
      "filename" : "mscorlib.dll",
      "sizeofimage" : "0x472000",
      "timestamp" : "0x99dbfea7",
      "il_offset" : "0x0002c"
   }
,
  {
      "is_managed" : "true",
      "guid" : "33A2C96F-EFBF-4A93-A109-12AE0F8EE39E",
      "token" : "0x6000010",
      "native_offset" : "0x0",
      "filename" : "OmniSharp.Stdio.dll",
      "sizeofimage" : "0xc000",
      "timestamp" : "0xcbac4161",
      "il_offset" : "0x0001c"
   }
,
  {
      "is_managed" : "true",
      "guid" : "533173D2-4DAE-4608-99D2-B10975534BB0",
      "token" : "0x600229b",
      "native_offset" : "0x0",
      "filename" : "mscorlib.dll",
      "sizeofimage" : "0x472000",
      "timestamp" : "0x99dbfea7",
      "il_offset" : "0x0000f"
   }
,
  {
      "is_managed" : "true",
      "guid" : "533173D2-4DAE-4608-99D2-B10975534BB0",
      "token" : "0x00000",
      "native_offset" : "0x0",
      "filename" : "mscorlib.dll",
      "sizeofimage" : "0x472000",
      "timestamp" : "0x99dbfea7",
      "il_offset" : "0x0002a"
   }

  ],
  "unmanaged_frames" : [
 {
    "is_managed" : "false",
    "native_address" : "0x559018892b52",
    "native_offset" : "0x00000"
  }
,
 {
    "is_managed" : "false",
    "native_address" : "0x559018a88b39",
    "native_offset" : "0x00000"
  }
,
 {
    "is_managed" : "false",
    "native_address" : "0x559018a89d42",
    "native_offset" : "0x00000"
  }
,
 {
    "is_managed" : "false",
    "native_address" : "0x559018a93247",
    "native_offset" : "0x00000"
  }
,
 {
    "is_managed" : "false",
    "native_address" : "0x5590188e70df",
    "native_offset" : "0x00000"
  }
,
 {
    "is_managed" : "false",
    "native_address" : "0x7f5a729cf3c0",
    "native_offset" : "0x00000"
  }
,
 {
    "is_managed" : "false",
    "native_address" : "0x7f5a729ce36c",
    "native_offset" : "0x00000"
  }
,
 {
    "is_managed" : "false",
    "native_address" : "0x5590189b9fff",
    "native_offset" : "0x00000"
  }
,
 {
    "is_managed" : "false",
    "native_address" : "0x5590189b869f",
    "native_offset" : "0x00000"
  }
,
 {
    "is_managed" : "false",
    "native_address" : "0x559018ae9743",
    "native_offset" : "0x00000"
  }
,
 {
    "is_managed" : "false",
    "native_address" : "0x559018a14035",
    "native_offset" : "0x00000"
  }
,
 {
    "is_managed" : "true",
    "guid" : "533173D2-4DAE-4608-99D2-B10975534BB0",
    "token" : "0x00000",
    "native_offset" : "0x0",
    "filename" : "mscorlib.dll",
    "sizeofimage" : "0x472000",
    "timestamp" : "0x99dbfea7",
    "il_offset" : "0x00000"
  }

 ]
},
{
  "is_managed" : true,
  "offset_free_hash" : "0x4902fce07",
  "offset_rich_hash" : "0x4902fcfec",
  "crashed" : false,
  "native_thread_id" : "0x7f5a23dfe700",
  "thread_info_addr" : "0x7f5a10000b60",
  "thread_name" : "RequestBuilder ",
  "ctx" : {
    "IP" : "0x7f5a729ca376",
    "SP" : "0x7f5a23dfd270",
    "BP" : "0x559019237a00"
 },
  "managed_frames" : [
 {
    "is_managed" : "false",
    "native_address" : "unregistered"
  }
,
 {
    "is_managed" : "true",
    "guid" : "533173D2-4DAE-4608-99D2-B10975534BB0",
    "token" : "0x00000",
    "native_offset" : "0x0",
    "filename" : "mscorlib.dll",
    "sizeofimage" : "0x472000",
    "timestamp" : "0x99dbfea7",
    "il_offset" : "0x00000"
  }
,
 {
    "is_managed" : "true",
    "guid" : "533173D2-4DAE-4608-99D2-B10975534BB0",
    "token" : "0x6001e40",
    "native_offset" : "0x0",
    "filename" : "mscorlib.dll",
    "sizeofimage" : "0x472000",
    "timestamp" : "0x99dbfea7",
    "il_offset" : "0x000d9"
  }
,
 {
    "is_managed" : "true",
    "guid" : "9C6E2CB7-DDD8-473F-A420-642DDCF7CE48",
    "token" : "0x6003b86",
    "native_offset" : "0x0",
    "filename" : "System.dll",
    "sizeofimage" : "0x286000",
    "timestamp" : "0xe193f384",
    "il_offset" : "0x00067"
  }
,
 {
    "is_managed" : "true",
    "guid" : "9C6E2CB7-DDD8-473F-A420-642DDCF7CE48",
    "token" : "0x600427a",
    "native_offset" : "0x0",
    "filename" : "System.dll",
    "sizeofimage" : "0x286000",
    "timestamp" : "0xe193f384",
    "il_offset" : "0x0004d"
  }
,
 {
    "is_managed" : "true",
    "guid" : "F5C26A75-6012-4A5F-9B72-55EB2A34A9A9",
    "token" : "0x6002267",
    "native_offset" : "0x0",
    "filename" : "Microsoft.Build.dll",
    "sizeofimage" : "0x1e6000",
    "timestamp" : "0xd74c9315",
    "il_offset" : "0x0002e"
  }
,
 {
    "is_managed" : "true",
    "guid" : "533173D2-4DAE-4608-99D2-B10975534BB0",
    "token" : "0x00000",
    "native_offset" : "0x0",
    "filename" : "mscorlib.dll",
    "sizeofimage" : "0x472000",
    "timestamp" : "0x99dbfea7",
    "il_offset" : "0x0002a"
  }

 ],
"unmanaged_frames" : [
{
  "is_managed" : "false",
  "native_address" : "0x559018892b52",
  "native_offset" : "0x00000"
 }
,
{
  "is_managed" : "false",
  "native_address" : "0x559018a88b39",
  "native_offset" : "0x00000"
 }
,
{
  "is_managed" : "false",
  "native_address" : "0x559018a89d42",
  "native_offset" : "0x00000"
 }
,
{
  "is_managed" : "false",
  "native_address" : "0x559018a93247",
  "native_offset" : "0x00000"
 }
,
{
  "is_managed" : "false",
  "native_address" : "0x5590188e70df",
  "native_offset" : "0x00000"
 }
,
{
  "is_managed" : "false",
  "native_address" : "0x7f5a729cf3c0",
  "native_offset" : "0x00000"
 }
,
{
  "is_managed" : "false",
  "native_address" : "0x7f5a729ca376",
  "native_offset" : "0x00000"
 }
,
{
  "is_managed" : "false",
  "native_address" : "0x559018b40a68",
  "native_offset" : "0x00000"
 }
,
{
  "is_managed" : "false",
  "native_address" : "0x559018a9dc7a",
  "native_offset" : "0x00000"
 }
,
{
  "is_managed" : "false",
  "native_address" : "0x559018a9f27a",
  "native_offset" : "0x00000"
 }
,
{
  "is_managed" : "false",
  "native_address" : "0x559018ad92de",
  "native_offset" : "0x00000"
 }
,
{
  "is_managed" : "false",
  "native_address" : "0x559018a2262b",
  "native_offset" : "0x00000"
 }
,
{
  "is_managed" : "true",
  "guid" : "533173D2-4DAE-4608-99D2-B10975534BB0",
  "token" : "0x00000",
  "native_offset" : "0x0",
  "filename" : "mscorlib.dll",
  "sizeofimage" : "0x472000",
  "timestamp" : "0x99dbfea7",
  "il_offset" : "0x00000"
 }

]
},
{
"is_managed" : false,
"offset_free_hash" : "0x0",
"offset_rich_hash" : "0x0",
"crashed" : false,
"native_thread_id" : "0x7f5a6eca2700",
"thread_info_addr" : "0x7f5a68000b60",
"thread_name" : "Finalizer",
"ctx" : {
  "IP" : "0x7f5a729cd3f4",
  "SP" : "0x7f5a6eca1d10",
  "BP" : "0x559018cc14a0"
},
"unmanaged_frames" : [
{
  "is_managed" : "false",
  "native_address" : "0x559018892b52",
  "native_offset" : "0x00000"
 }
,
{
  "is_managed" : "false",
  "native_address" : "0x559018a88b39",
  "native_offset" : "0x00000"
 }
,
{
  "is_managed" : "false",
  "native_address" : "0x559018a89d42",
  "native_offset" : "0x00000"
 }
,
{
  "is_managed" : "false",
  "native_address" : "0x559018a93247",
  "native_offset" : "0x00000"
 }
,
{
  "is_managed" : "false",
  "native_address" : "0x5590188e70df",
  "native_offset" : "0x00000"
 }
,
{
  "is_managed" : "false",
  "native_address" : "0x7f5a729cf3c0",
  "native_offset" : "0x00000"
 }
,
{
  "is_managed" : "false",
  "native_address" : "0x7f5a729cd3f4",
  "native_offset" : "0x00000"
 }
,
{
  "is_managed" : "false",
  "native_address" : "0x7f5a729cd4e8",
  "native_offset" : "0x00000"
 }
,
{
  "is_managed" : "false",
  "native_address" : "0x559018ad5078",
  "native_offset" : "0x00000"
 }
,
{
  "is_managed" : "false",
  "native_address" : "0x559018a92afa",
  "native_offset" : "0x00000"
 }
,
{
  "is_managed" : "false",
  "native_address" : "0x7f5a729c3609",
  "native_offset" : "0x00000"
 }
,
{
  "is_managed" : "false",
  "native_address" : "0x7f5a7259c293",
  "native_offset" : "0x00000"
 }

]
},
{
"is_managed" : false,
"offset_free_hash" : "0x0",
"offset_rich_hash" : "0x0",
"crashed" : false,
"native_thread_id" : "0x7f5a23fff700",
"thread_info_addr" : "0x7f5a18000b60",
"thread_name" : "Thread Pool Wor",
"ctx" : {
  "IP" : "0x7f5a729cd618",
  "SP" : "0x7f5a23ffec70",
  "BP" : "0x559018cc1d88"
},
"unmanaged_frames" : [
{
  "is_managed" : "false",
  "native_address" : "0x559018892b52",
  "native_offset" : "0x00000"
 }
,
{
  "is_managed" : "false",
  "native_address" : "0x559018a88b39",
  "native_offset" : "0x00000"
 }
,
{
  "is_managed" : "false",
  "native_address" : "0x559018a89d42",
  "native_offset" : "0x00000"
 }
,
{
  "is_managed" : "false",
  "native_address" : "0x559018a93247",
  "native_offset" : "0x00000"
 }
,
{
  "is_managed" : "false",
  "native_address" : "0x5590188e70df",
  "native_offset" : "0x00000"
 }
,
{
  "is_managed" : "false",
  "native_address" : "0x7f5a729cf3c0",
  "native_offset" : "0x00000"
 }
,
{
  "is_managed" : "false",
  "native_address" : "0x7f5a729cd618",
  "native_offset" : "0x00000"
 }
,
{
  "is_managed" : "false",
  "native_address" : "0x7f5a729cd743",
  "native_offset" : "0x00000"
 }
,
{
  "is_managed" : "false",
  "native_address" : "0x559018ae52b8",
  "native_offset" : "0x00000"
 }
,
{
  "is_managed" : "false",
  "native_address" : "0x559018a92afa",
  "native_offset" : "0x00000"
 }
,
{
  "is_managed" : "false",
  "native_address" : "0x7f5a729c3609",
  "native_offset" : "0x00000"
 }
,
{
  "is_managed" : "false",
  "native_address" : "0x7f5a7259c293",
  "native_offset" : "0x00000"
 }

]
},
{
"is_managed" : false,
"offset_free_hash" : "0x0",
"offset_rich_hash" : "0x0",
"crashed" : false,
"native_thread_id" : "0x7f5a6e015700",
"thread_info_addr" : "0x7f5a64000b60",
"thread_name" : "Thread Pool Wor",
"ctx" : {
  "IP" : "0x7f5a729cd618",
  "SP" : "0x7f5a6e014c70",
  "BP" : "0x559018cc1d88"
},
"unmanaged_frames" : [
{
  "is_managed" : "false",
  "native_address" : "0x559018892b52",
  "native_offset" : "0x00000"
 }
,
{
  "is_managed" : "false",
  "native_address" : "0x559018a88b39",
  "native_offset" : "0x00000"
 }
,
{
  "is_managed" : "false",
  "native_address" : "0x559018a89d42",
  "native_offset" : "0x00000"
 }
,
{
  "is_managed" : "false",
  "native_address" : "0x559018a93247",
  "native_offset" : "0x00000"
 }
,
{
  "is_managed" : "false",
  "native_address" : "0x5590188e70df",
  "native_offset" : "0x00000"
 }
,
{
  "is_managed" : "false",
  "native_address" : "0x7f5a729cf3c0",
  "native_offset" : "0x00000"
 }
,
{
  "is_managed" : "false",
  "native_address" : "0x7f5a729cd618",
  "native_offset" : "0x00000"
 }
,
{
  "is_managed" : "false",
  "native_address" : "0x7f5a729cd743",
  "native_offset" : "0x00000"
 }
,
{
  "is_managed" : "false",
  "native_address" : "0x559018ae52b8",
  "native_offset" : "0x00000"
 }
,
{
  "is_managed" : "false",
  "native_address" : "0x559018a92afa",
  "native_offset" : "0x00000"
 }
,
{
  "is_managed" : "false",
  "native_address" : "0x7f5a729c3609",
  "native_offset" : "0x00000"
 }
,
{
  "is_managed" : "false",
  "native_address" : "0x7f5a7259c293",
  "native_offset" : "0x00000"
 }

]
},
{
"is_managed" : true,
"offset_free_hash" : "0x4b4d7d223",
"offset_rich_hash" : "0x4b4d7d39f",
"crashed" : false,
"native_thread_id" : "0x7f5a6d6d6700",
"thread_info_addr" : "0x7f5a54000b60",
"thread_name" : "ProcessWriteQue",
"ctx" : {
  "IP" : "0x7f5a729ca376",
  "SP" : "0x7f5a6d6d5250",
  "BP" : "0x5590192366c0"
},
"managed_frames" : [
{
  "is_managed" : "false",
  "native_address" : "unregistered"
 }
,
{
  "is_managed" : "true",
  "guid" : "533173D2-4DAE-4608-99D2-B10975534BB0",
  "token" : "0x00000",
  "native_offset" : "0x0",
  "filename" : "mscorlib.dll",
  "sizeofimage" : "0x472000",
  "timestamp" : "0x99dbfea7",
  "il_offset" : "0x00000"
 }
,
{
  "is_managed" : "true",
  "guid" : "533173D2-4DAE-4608-99D2-B10975534BB0",
  "token" : "0x6001e40",
  "native_offset" : "0x0",
  "filename" : "mscorlib.dll",
  "sizeofimage" : "0x472000",
  "timestamp" : "0x99dbfea7",
  "il_offset" : "0x000d9"
 }
,
{
  "is_managed" : "true",
  "guid" : "9C6E2CB7-DDD8-473F-A420-642DDCF7CE48",
  "token" : "0x6003b86",
  "native_offset" : "0x0",
  "filename" : "System.dll",
  "sizeofimage" : "0x286000",
  "timestamp" : "0xe193f384",
  "il_offset" : "0x00067"
 }
,
{
  "is_managed" : "true",
  "guid" : "9C6E2CB7-DDD8-473F-A420-642DDCF7CE48",
  "token" : "0x6003b85",
  "native_offset" : "0x0",
  "filename" : "System.dll",
  "sizeofimage" : "0x286000",
  "timestamp" : "0xe193f384",
  "il_offset" : "0x00006"
 }
,
{
  "is_managed" : "true",
  "guid" : "6C50CDDA-D863-4B6D-A396-DEC3BAD50BA8",
  "token" : "0x6000041",
  "native_offset" : "0x0",
  "filename" : "OmniSharp.Host.dll",
  "sizeofimage" : "0x1a000",
  "timestamp" : "0xab65c5ea",
  "il_offset" : "0x0000c"
 }
,
{
  "is_managed" : "true",
  "guid" : "533173D2-4DAE-4608-99D2-B10975534BB0",
  "token" : "0x00000",
  "native_offset" : "0x0",
  "filename" : "mscorlib.dll",
  "sizeofimage" : "0x472000",
  "timestamp" : "0x99dbfea7",
  "il_offset" : "0x0002a"
 }

],
"unmanaged_frames" : [
{
"is_managed" : "false",
"native_address" : "0x559018892b52",
"native_offset" : "0x00000"
}
,
{
"is_managed" : "false",
"native_address" : "0x559018a88b39",
"native_offset" : "0x00000"
}
,
{
"is_managed" : "false",
"native_address" : "0x559018a89d42",
"native_offset" : "0x00000"
}
,
{
"is_managed" : "false",
"native_address" : "0x559018a93247",
"native_offset" : "0x00000"
}
,
{
"is_managed" : "false",
"native_address" : "0x5590188e70df",
"native_offset" : "0x00000"
}
,
{
"is_managed" : "false",
"native_address" : "0x7f5a729cf3c0",
"native_offset" : "0x00000"
}
,
{
"is_managed" : "false",
"native_address" : "0x7f5a729ca376",
"native_offset" : "0x00000"
}
,
{
"is_managed" : "false",
"native_address" : "0x559018b40a68",
"native_offset" : "0x00000"
}
,
{
"is_managed" : "false",
"native_address" : "0x559018a9dc7a",
"native_offset" : "0x00000"
}
,
{
"is_managed" : "false",
"native_address" : "0x559018a9f27a",
"native_offset" : "0x00000"
}
,
{
"is_managed" : "false",
"native_address" : "0x559018ad92de",
"native_offset" : "0x00000"
}
,
{
"is_managed" : "false",
"native_address" : "0x559018a2262b",
"native_offset" : "0x00000"
}
,
{
"is_managed" : "true",
"guid" : "533173D2-4DAE-4608-99D2-B10975534BB0",
"token" : "0x00000",
"native_offset" : "0x0",
"filename" : "mscorlib.dll",
"sizeofimage" : "0x472000",
"timestamp" : "0x99dbfea7",
"il_offset" : "0x00000"
}

]
},
{
"is_managed" : false,
"offset_free_hash" : "0x0",
"offset_rich_hash" : "0x0",
"crashed" : false,
"native_thread_id" : "0x7f5a6c402700",
"thread_info_addr" : "0x7f5a48000b60",
"thread_name" : "Thread Pool Wor",
"ctx" : {
"IP" : "0x7f5a729cd618",
"SP" : "0x7f5a6c401c70",
"BP" : "0x559018cc1d88"
},
"unmanaged_frames" : [
{
"is_managed" : "false",
"native_address" : "0x559018892b52",
"native_offset" : "0x00000"
}
,
{
"is_managed" : "false",
"native_address" : "0x559018a88b39",
"native_offset" : "0x00000"
}
,
{
"is_managed" : "false",
"native_address" : "0x559018a89d42",
"native_offset" : "0x00000"
}
,
{
"is_managed" : "false",
"native_address" : "0x559018a93247",
"native_offset" : "0x00000"
}
,
{
"is_managed" : "false",
"native_address" : "0x5590188e70df",
"native_offset" : "0x00000"
}
,
{
"is_managed" : "false",
"native_address" : "0x7f5a729cf3c0",
"native_offset" : "0x00000"
}
,
{
"is_managed" : "false",
"native_address" : "0x7f5a729cd618",
"native_offset" : "0x00000"
}
,
{
"is_managed" : "false",
"native_address" : "0x7f5a729cd743",
"native_offset" : "0x00000"
}
,
{
"is_managed" : "false",
"native_address" : "0x559018ae52b8",
"native_offset" : "0x00000"
}
,
{
"is_managed" : "false",
"native_address" : "0x559018a92afa",
"native_offset" : "0x00000"
}
,
{
"is_managed" : "false",
"native_address" : "0x7f5a729c3609",
"native_offset" : "0x00000"
}
,
{
"is_managed" : "false",
"native_address" : "0x7f5a7259c293",
"native_offset" : "0x00000"
}

]
},
{
"is_managed" : false,
"offset_free_hash" : "0x0",
"offset_rich_hash" : "0x0",
"crashed" : false,
"native_thread_id" : "0x7f5a0f6d1700",
"thread_info_addr" : "0x7f5a04000b60",
"thread_name" : "Thread Pool Wor",
"ctx" : {
"IP" : "0x7f5a729cd618",
"SP" : "0x7f5a0f6d0c70",
"BP" : "0x559018cc1d88"
},
"unmanaged_frames" : [
{
"is_managed" : "false",
"native_address" : "0x559018892b52",
"native_offset" : "0x00000"
}
,
{
"is_managed" : "false",
"native_address" : "0x559018a88b39",
"native_offset" : "0x00000"
}
,
{
"is_managed" : "false",
"native_address" : "0x559018a89d42",
"native_offset" : "0x00000"
}
,
{
"is_managed" : "false",
"native_address" : "0x559018a93247",
"native_offset" : "0x00000"
}
,
{
"is_managed" : "false",
"native_address" : "0x5590188e70df",
"native_offset" : "0x00000"
}
,
{
"is_managed" : "false",
"native_address" : "0x7f5a729cf3c0",
"native_offset" : "0x00000"
}
,
{
"is_managed" : "false",
"native_address" : "0x7f5a729cd618",
"native_offset" : "0x00000"
}
,
{
"is_managed" : "false",
"native_address" : "0x7f5a729cd743",
"native_offset" : "0x00000"
}
,
{
"is_managed" : "false",
"native_address" : "0x559018ae52b8",
"native_offset" : "0x00000"
}
,
{
"is_managed" : "false",
"native_address" : "0x559018a92afa",
"native_offset" : "0x00000"
}
,
{
"is_managed" : "false",
"native_address" : "0x7f5a729c3609",
"native_offset" : "0x00000"
}
,
{
"is_managed" : "false",
"native_address" : "0x7f5a7259c293",
"native_offset" : "0x00000"
}

]
},
{
"is_managed" : true,
"offset_free_hash" : "0x706d26222",
"offset_rich_hash" : "0x706d265e2",
"crashed" : false,
"native_thread_id" : "0x7f5a72478fc0",
"thread_info_addr" : "0x55901922fa70",
"thread_name" : "mono",
"ctx" : {
"IP" : "0x7f5a729ca376",
"SP" : "0x7ffcced5f670",
"BP" : "0x559019232fa0"
},
"managed_frames" : [
{
"is_managed" : "false",
"native_address" : "unregistered"
}
,
{
"is_managed" : "true",
"guid" : "533173D2-4DAE-4608-99D2-B10975534BB0",
"token" : "0x00000",
"native_offset" : "0x0",
"filename" : "mscorlib.dll",
"sizeofimage" : "0x472000",
"timestamp" : "0x99dbfea7",
"il_offset" : "0x00000"
}
,
{
"is_managed" : "true",
"guid" : "71BD91E4-D36E-4DA0-B2AD-6D5D3198B99D",
"token" : "0x6000006",
"native_offset" : "0x0",
"filename" : "OmniSharp.exe",
"sizeofimage" : "0x8000",
"timestamp" : "0xef7596b2",
"il_offset" : "0x001aa"
}
,
{
"is_managed" : "true",
"guid" : "6C50CDDA-D863-4B6D-A396-DEC3BAD50BA8",
"token" : "0x60000e0",
"native_offset" : "0x0",
"filename" : "OmniSharp.Host.dll",
"sizeofimage" : "0x1a000",
"timestamp" : "0xab65c5ea",
"il_offset" : "0x0000b"
}
,
{
"is_managed" : "true",
"guid" : "ABE0FC67-97A9-4A73-931E-EA5CECAFFD78",
"token" : "0x600031f",
"native_offset" : "0x0",
"filename" : "McMaster.Extensions.CommandLineUtils.dll",
"sizeofimage" : "0x2a000",
"timestamp" : "0xa23345f1",
"il_offset" : "0x00000"
}
,
{
"is_managed" : "true",
"guid" : "ABE0FC67-97A9-4A73-931E-EA5CECAFFD78",
"token" : "0x6000322",
"native_offset" : "0x0",
"filename" : "McMaster.Extensions.CommandLineUtils.dll",
"sizeofimage" : "0x2a000",
"timestamp" : "0xa23345f1",
"il_offset" : "0x000bf"
}
,
{
"is_managed" : "true",
"guid" : "533173D2-4DAE-4608-99D2-B10975534BB0",
"token" : "0x6004619",
"native_offset" : "0x0",
"filename" : "mscorlib.dll",
"sizeofimage" : "0x472000",
"timestamp" : "0x99dbfea7",
"il_offset" : "0x0002c"
}
,
{
"is_managed" : "true",
"guid" : "ABE0FC67-97A9-4A73-931E-EA5CECAFFD78",
"token" : "0x60000dd",
"native_offset" : "0x0",
"filename" : "McMaster.Extensions.CommandLineUtils.dll",
"sizeofimage" : "0x2a000",
"timestamp" : "0xa23345f1",
"il_offset" : "0x0002c"
}
,
{
"is_managed" : "true",
"guid" : "ABE0FC67-97A9-4A73-931E-EA5CECAFFD78",
"token" : "0x60000dc",
"native_offset" : "0x0",
"filename" : "McMaster.Extensions.CommandLineUtils.dll",
"sizeofimage" : "0x2a000",
"timestamp" : "0xa23345f1",
"il_offset" : "0x00000"
}
,
{
"is_managed" : "true",
"guid" : "6C50CDDA-D863-4B6D-A396-DEC3BAD50BA8",
"token" : "0x6000006",
"native_offset" : "0x0",
"filename" : "OmniSharp.Host.dll",
"sizeofimage" : "0x1a000",
"timestamp" : "0xab65c5ea",
"il_offset" : "0x00081"
}
,
{
"is_managed" : "true",
"guid" : "71BD91E4-D36E-4DA0-B2AD-6D5D3198B99D",
"token" : "0x6000004",
"native_offset" : "0x0",
"filename" : "OmniSharp.exe",
"sizeofimage" : "0x8000",
"timestamp" : "0xef7596b2",
"il_offset" : "0x00028"
}
,
{
"is_managed" : "true",
"guid" : "6C50CDDA-D863-4B6D-A396-DEC3BAD50BA8",
"token" : "0x6000024",
"native_offset" : "0x0",
"filename" : "OmniSharp.Host.dll",
"sizeofimage" : "0x1a000",
"timestamp" : "0xab65c5ea",
"il_offset" : "0x0001c"
}
,
{
"is_managed" : "true",
"guid" : "71BD91E4-D36E-4DA0-B2AD-6D5D3198B99D",
"token" : "0x6000001",
"native_offset" : "0x0",
"filename" : "OmniSharp.exe",
"sizeofimage" : "0x8000",
"timestamp" : "0xef7596b2",
"il_offset" : "0x00005"
}
,
{
"is_managed" : "true",
"guid" : "71BD91E4-D36E-4DA0-B2AD-6D5D3198B99D",
"token" : "0x00000",
"native_offset" : "0x0",
"filename" : "OmniSharp.exe",
"sizeofimage" : "0x8000",
"timestamp" : "0xef7596b2",
"il_offset" : "0x0002a"
}

],
"unmanaged_frames" : [
{
"is_managed" : "false",
"native_address" : "0x559018892b52",
"native_offset" : "0x00000"
}
,
{
"is_managed" : "false",
"native_address" : "0x559018a88b39",
"native_offset" : "0x00000"
}
,
{
"is_managed" : "false",
"native_address" : "0x559018a89d42",
"native_offset" : "0x00000"
}
,
{
"is_managed" : "false",
"native_address" : "0x559018a93247",
"native_offset" : "0x00000"
}
,
{
"is_managed" : "false",
"native_address" : "0x5590188e70df",
"native_offset" : "0x00000"
}
,
{
"is_managed" : "false",
"native_address" : "0x7f5a729cf3c0",
"native_offset" : "0x00000"
}
,
{
"is_managed" : "false",
"native_address" : "0x7f5a729ca376",
"native_offset" : "0x00000"
}
,
{
"is_managed" : "false",
"native_address" : "0x559018b40a68",
"native_offset" : "0x00000"
}
,
{
"is_managed" : "false",
"native_address" : "0x559018a9dc7a",
"native_offset" : "0x00000"
}
,
{
"is_managed" : "false",
"native_address" : "0x559018a9f27a",
"native_offset" : "0x00000"
}
,
{
"is_managed" : "false",
"native_address" : "0x559018a9fb10",
"native_offset" : "0x00000"
}
,
{
"is_managed" : "false",
"native_address" : "0x559018a8ff9a",
"native_offset" : "0x00000"
}
,
{
"is_managed" : "false",
"native_address" : "0x559018a249a6",
"native_offset" : "0x00000"
}
,
{
"is_managed" : "true",
"guid" : "533173D2-4DAE-4608-99D2-B10975534BB0",
"token" : "0x00000",
"native_offset" : "0x0",
"filename" : "mscorlib.dll",
"sizeofimage" : "0x472000",
"timestamp" : "0x99dbfea7",
"il_offset" : "0x00000"
}

]
},
{
"is_managed" : true,
"offset_free_hash" : "0x440975f7e",
"offset_rich_hash" : "0x4409762b2",
"crashed" : false,
"native_thread_id" : "0x7f5a0e6d0700",
"thread_info_addr" : "0x7f5a00000b60",
"thread_name" : "Thread Pool Wor",
"ctx" : {
"IP" : "0x7f5a729ce36c",
"SP" : "0x7f5a0e6cf3a0",
"BP" : "0x6"
},
"managed_frames" : [
{
"is_managed" : "false",
"native_address" : "unregistered"
}
,
{
"is_managed" : "true",
"guid" : "9C6E2CB7-DDD8-473F-A420-642DDCF7CE48",
"token" : "0x00000",
"native_offset" : "0x0",
"filename" : "System.dll",
"sizeofimage" : "0x286000",
"timestamp" : "0xe193f384",
"il_offset" : "0x00000"
}
,
{
"is_managed" : "true",
"guid" : "9C6E2CB7-DDD8-473F-A420-642DDCF7CE48",
"token" : "0x6003e17",
"native_offset" : "0x0",
"filename" : "System.dll",
"sizeofimage" : "0x286000",
"timestamp" : "0xe193f384",
"il_offset" : "0x00012"
}
,
{
"is_managed" : "true",
"guid" : "9C6E2CB7-DDD8-473F-A420-642DDCF7CE48",
"token" : "0x60041bc",
"native_offset" : "0x0",
"filename" : "System.dll",
"sizeofimage" : "0x286000",
"timestamp" : "0xe193f384",
"il_offset" : "0x00027"
}
,
{
"is_managed" : "true",
"guid" : "9C6E2CB7-DDD8-473F-A420-642DDCF7CE48",
"token" : "0x60041bb",
"native_offset" : "0x0",
"filename" : "System.dll",
"sizeofimage" : "0x286000",
"timestamp" : "0xe193f384",
"il_offset" : "0x002d1"
}
,
{
"is_managed" : "true",
"guid" : "9C6E2CB7-DDD8-473F-A420-642DDCF7CE48",
"token" : "0x60043b1",
"native_offset" : "0x0",
"filename" : "System.dll",
"sizeofimage" : "0x286000",
"timestamp" : "0xe193f384",
"il_offset" : "0x00000"
}
,
{
"is_managed" : "true",
"guid" : "533173D2-4DAE-4608-99D2-B10975534BB0",
"token" : "0x00000",
"native_offset" : "0x0",
"filename" : "mscorlib.dll",
"sizeofimage" : "0x472000",
"timestamp" : "0x99dbfea7",
"il_offset" : "0x0002a"
}

],
"unmanaged_frames" : [
{
"is_managed" : "false",
"native_address" : "0x559018892b52",
"native_offset" : "0x00000"
}
,
{
"is_managed" : "false",
"native_address" : "0x559018a88b39",
"native_offset" : "0x00000"
}
,
{
"is_managed" : "false",
"native_address" : "0x559018a89d42",
"native_offset" : "0x00000"
}
,
{
"is_managed" : "false",
"native_address" : "0x559018a93247",
"native_offset" : "0x00000"
}
,
{
"is_managed" : "false",
"native_address" : "0x5590188e70df",
"native_offset" : "0x00000"
}
,
{
"is_managed" : "false",
"native_address" : "0x7f5a729cf3c0",
"native_offset" : "0x00000"
}
,
{
"is_managed" : "false",
"native_address" : "0x7f5a729ce36c",
"native_offset" : "0x00000"
}
,
{
"is_managed" : "false",
"native_address" : "0x7f5a6e4326ff",
"native_offset" : "0x00000"
}
,
{
"is_managed" : "false",
"native_address" : "0x7f5a6e4311f6",
"native_offset" : "0x00000"
}
,
{
"is_managed" : "true",
"guid" : "9C6E2CB7-DDD8-473F-A420-642DDCF7CE48",
"token" : "0x00000",
"native_offset" : "0x0",
"filename" : "System.dll",
"sizeofimage" : "0x286000",
"timestamp" : "0xe193f384",
"il_offset" : "0x00000"
}

]
},
{
"is_managed" : true,
"offset_free_hash" : "0x440975f7e",
"offset_rich_hash" : "0x4409762b2",
"crashed" : false,
"native_thread_id" : "0x7f5a0e0fe700",
"thread_info_addr" : "0x7f59f8001340",
"thread_name" : "Thread Pool Wor",
"ctx" : {
"IP" : "0x7f5a729ce36c",
"SP" : "0x7f5a0e0fd3a0",
"BP" : "0x4"
},
"managed_frames" : [
{
"is_managed" : "false",
"native_address" : "unregistered"
}
,
{
"is_managed" : "true",
"guid" : "9C6E2CB7-DDD8-473F-A420-642DDCF7CE48",
"token" : "0x00000",
"native_offset" : "0x0",
"filename" : "System.dll",
"sizeofimage" : "0x286000",
"timestamp" : "0xe193f384",
"il_offset" : "0x00000"
}
,
{
"is_managed" : "true",
"guid" : "9C6E2CB7-DDD8-473F-A420-642DDCF7CE48",
"token" : "0x6003e17",
"native_offset" : "0x0",
"filename" : "System.dll",
"sizeofimage" : "0x286000",
"timestamp" : "0xe193f384",
"il_offset" : "0x00012"
}
,
{
"is_managed" : "true",
"guid" : "9C6E2CB7-DDD8-473F-A420-642DDCF7CE48",
"token" : "0x60041bc",
"native_offset" : "0x0",
"filename" : "System.dll",
"sizeofimage" : "0x286000",
"timestamp" : "0xe193f384",
"il_offset" : "0x00027"
}
,
{
"is_managed" : "true",
"guid" : "9C6E2CB7-DDD8-473F-A420-642DDCF7CE48",
"token" : "0x60041bb",
"native_offset" : "0x0",
"filename" : "System.dll",
"sizeofimage" : "0x286000",
"timestamp" : "0xe193f384",
"il_offset" : "0x002d1"
}
,
{
"is_managed" : "true",
"guid" : "9C6E2CB7-DDD8-473F-A420-642DDCF7CE48",
"token" : "0x60043b1",
"native_offset" : "0x0",
"filename" : "System.dll",
"sizeofimage" : "0x286000",
"timestamp" : "0xe193f384",
"il_offset" : "0x00000"
}
,
{
"is_managed" : "true",
"guid" : "533173D2-4DAE-4608-99D2-B10975534BB0",
"token" : "0x00000",
"native_offset" : "0x0",
"filename" : "mscorlib.dll",
"sizeofimage" : "0x472000",
"timestamp" : "0x99dbfea7",
"il_offset" : "0x0002a"
}

],
"unmanaged_frames" : [
{
"is_managed" : "false",
"native_address" : "0x559018892b52",
"native_offset" : "0x00000"
}
,
{
"is_managed" : "false",
"native_address" : "0x559018a88b39",
"native_offset" : "0x00000"
}
,
{
"is_managed" : "false",
"native_address" : "0x559018a89d42",
"native_offset" : "0x00000"
}
,
{
"is_managed" : "false",
"native_address" : "0x559018a93247",
"native_offset" : "0x00000"
}
,
{
"is_managed" : "false",
"native_address" : "0x5590188e70df",
"native_offset" : "0x00000"
}
,
{
"is_managed" : "false",
"native_address" : "0x7f5a729cf3c0",
"native_offset" : "0x00000"
}
,
{
"is_managed" : "false",
"native_address" : "0x7f5a729ce36c",
"native_offset" : "0x00000"
}
,
{
"is_managed" : "false",
"native_address" : "0x7f5a6e4326ff",
"native_offset" : "0x00000"
}
,
{
"is_managed" : "false",
"native_address" : "0x7f5a6e4311f6",
"native_offset" : "0x00000"
}
,
{
"is_managed" : "true",
"guid" : "9C6E2CB7-DDD8-473F-A420-642DDCF7CE48",
"token" : "0x00000",
"native_offset" : "0x0",
"filename" : "System.dll",
"sizeofimage" : "0x286000",
"timestamp" : "0xe193f384",
"il_offset" : "0x00000"
}

]
},
{
"is_managed" : true,
"offset_free_hash" : "0x208aa6d2f",
"offset_rich_hash" : "0x208aa6d59",
"crashed" : false,
"native_thread_id" : "0x7f5a6d8ff700",
"thread_info_addr" : "0x7f5a50000b60",
"thread_name" : "Timer-Scheduler",
"ctx" : {
"IP" : "0x7f5a729ca7b1",
"SP" : "0x7f5a6d8fdf40",
"BP" : "0x5590192322f0"
},
"managed_frames" : [
{
"is_managed" : "false",
"native_address" : "unregistered"
}
,
{
"is_managed" : "true",
"guid" : "533173D2-4DAE-4608-99D2-B10975534BB0",
"token" : "0x00000",
"native_offset" : "0x0",
"filename" : "mscorlib.dll",
"sizeofimage" : "0x472000",
"timestamp" : "0x99dbfea7",
"il_offset" : "0x00000"
}
,
{
"is_managed" : "true",
"guid" : "533173D2-4DAE-4608-99D2-B10975534BB0",
"token" : "0x00000",
"native_offset" : "0x0",
"filename" : "mscorlib.dll",
"sizeofimage" : "0x472000",
"timestamp" : "0x99dbfea7",
"il_offset" : "0x0002a"
}

],
"unmanaged_frames" : [
{
"is_managed" : "false",
"native_address" : "0x559018892b52",
"native_offset" : "0x00000"
}
,
{
"is_managed" : "false",
"native_address" : "0x559018a88b39",
"native_offset" : "0x00000"
}
,
{
"is_managed" : "false",
"native_address" : "0x559018a89d42",
"native_offset" : "0x00000"
}
,
{
"is_managed" : "false",
"native_address" : "0x559018a93247",
"native_offset" : "0x00000"
}
,
{
"is_managed" : "false",
"native_address" : "0x5590188e70df",
"native_offset" : "0x00000"
}
,
{
"is_managed" : "false",
"native_address" : "0x7f5a729cf3c0",
"native_offset" : "0x00000"
}
,
{
"is_managed" : "false",
"native_address" : "0x7f5a729ca7b1",
"native_offset" : "0x00000"
}
,
{
"is_managed" : "false",
"native_address" : "0x559018b40a0e",
"native_offset" : "0x00000"
}
,
{
"is_managed" : "false",
"native_address" : "0x559018a9dc7a",
"native_offset" : "0x00000"
}
,
{
"is_managed" : "false",
"native_address" : "0x559018a9f2eb",
"native_offset" : "0x00000"
}
,
{
"is_managed" : "false",
"native_address" : "0x559018a9fb10",
"native_offset" : "0x00000"
}
,
{
"is_managed" : "false",
"native_address" : "0x559018a8ff9a",
"native_offset" : "0x00000"
}
,
{
"is_managed" : "false",
"native_address" : "0x559018a249a6",
"native_offset" : "0x00000"
}
,
{
"is_managed" : "true",
"guid" : "533173D2-4DAE-4608-99D2-B10975534BB0",
"token" : "0x00000",
"native_offset" : "0x0",
"filename" : "mscorlib.dll",
"sizeofimage" : "0x472000",
"timestamp" : "0x99dbfea7",
"il_offset" : "0x00000"
}

]
},
{
"is_managed" : true,
"offset_free_hash" : "0x440975f7e",
"offset_rich_hash" : "0x4409762b2",
"crashed" : false,
"native_thread_id" : "0x7f5a0e8d1700",
"thread_info_addr" : "0x7f59fc003b20",
"thread_name" : "Thread Pool Wor",
"ctx" : {
"IP" : "0x7f5a729ce36c",
"SP" : "0x7f5a0e8d03a0",
"BP" : "0x7"
},
"managed_frames" : [
{
"is_managed" : "false",
"native_address" : "unregistered"
}
,
{
"is_managed" : "true",
"guid" : "9C6E2CB7-DDD8-473F-A420-642DDCF7CE48",
"token" : "0x00000",
"native_offset" : "0x0",
"filename" : "System.dll",
"sizeofimage" : "0x286000",
"timestamp" : "0xe193f384",
"il_offset" : "0x00000"
}
,
{
"is_managed" : "true",
"guid" : "9C6E2CB7-DDD8-473F-A420-642DDCF7CE48",
"token" : "0x6003e17",
"native_offset" : "0x0",
"filename" : "System.dll",
"sizeofimage" : "0x286000",
"timestamp" : "0xe193f384",
"il_offset" : "0x00012"
}
,
{
"is_managed" : "true",
"guid" : "9C6E2CB7-DDD8-473F-A420-642DDCF7CE48",
"token" : "0x60041bc",
"native_offset" : "0x0",
"filename" : "System.dll",
"sizeofimage" : "0x286000",
"timestamp" : "0xe193f384",
"il_offset" : "0x00027"
}
,
{
"is_managed" : "true",
"guid" : "9C6E2CB7-DDD8-473F-A420-642DDCF7CE48",
"token" : "0x60041bb",
"native_offset" : "0x0",
"filename" : "System.dll",
"sizeofimage" : "0x286000",
"timestamp" : "0xe193f384",
"il_offset" : "0x002d1"
}
,
{
"is_managed" : "true",
"guid" : "9C6E2CB7-DDD8-473F-A420-642DDCF7CE48",
"token" : "0x60043b1",
"native_offset" : "0x0",
"filename" : "System.dll",
"sizeofimage" : "0x286000",
"timestamp" : "0xe193f384",
"il_offset" : "0x00000"
}
,
{
"is_managed" : "true",
"guid" : "533173D2-4DAE-4608-99D2-B10975534BB0",
"token" : "0x00000",
"native_offset" : "0x0",
"filename" : "mscorlib.dll",
"sizeofimage" : "0x472000",
"timestamp" : "0x99dbfea7",
"il_offset" : "0x0002a"
}

],
"unmanaged_frames" : [
{
"is_managed" : "false",
"native_address" : "0x559018892b52",
"native_offset" : "0x00000"
}
,
{
"is_managed" : "false",
"native_address" : "0x559018a88b39",
"native_offset" : "0x00000"
}
,
{
"is_managed" : "false",
"native_address" : "0x559018a89d42",
"native_offset" : "0x00000"
}
,
{
"is_managed" : "false",
"native_address" : "0x559018a93247",
"native_offset" : "0x00000"
}
,
{
"is_managed" : "false",
"native_address" : "0x5590188e70df",
"native_offset" : "0x00000"
}
,
{
"is_managed" : "false",
"native_address" : "0x7f5a729cf3c0",
"native_offset" : "0x00000"
}
,
{
"is_managed" : "false",
"native_address" : "0x7f5a729ce36c",
"native_offset" : "0x00000"
}
,
{
"is_managed" : "false",
"native_address" : "0x7f5a6e4326ff",
"native_offset" : "0x00000"
}
,
{
"is_managed" : "false",
"native_address" : "0x7f5a6e4311f6",
"native_offset" : "0x00000"
}
,
{
"is_managed" : "true",
"guid" : "9C6E2CB7-DDD8-473F-A420-642DDCF7CE48",
"token" : "0x00000",
"native_offset" : "0x0",
"filename" : "System.dll",
"sizeofimage" : "0x286000",
"timestamp" : "0xe193f384",
"il_offset" : "0x00000"
}

]
},
{
"is_managed" : true,
"offset_free_hash" : "0x1896d80d68",
"offset_rich_hash" : "0x1896d827a9",
"crashed" : true,
"native_thread_id" : "0x7f5a4cb67700",
"thread_info_addr" : "0x7f5a24000b60",
"thread_name" : "RequestBuilder ",
"ctx" : {
"IP" : "0x559018a45f74",
"SP" : "0x7f5a4cb63548",
"BP" : "0x7f5a1061c600"
},
"managed_frames" : [
{
"is_managed" : "false",
"native_address" : "unregistered"
}
,
{
"is_managed" : "true",
"guid" : "533173D2-4DAE-4608-99D2-B10975534BB0",
"token" : "0x00000",
"native_offset" : "0x0",
"filename" : "mscorlib.dll",
"sizeofimage" : "0x472000",
"timestamp" : "0x99dbfea7",
"il_offset" : "0x00000"
}
,
{
"is_managed" : "true",
"guid" : "533173D2-4DAE-4608-99D2-B10975534BB0",
"token" : "0x6004ba7",
"native_offset" : "0x0",
"filename" : "mscorlib.dll",
"sizeofimage" : "0x472000",
"timestamp" : "0x99dbfea7",
"il_offset" : "0x00000"
}
,
{
"is_managed" : "true",
"guid" : "533173D2-4DAE-4608-99D2-B10975534BB0",
"token" : "0x6004c37",
"native_offset" : "0x0",
"filename" : "mscorlib.dll",
"sizeofimage" : "0x472000",
"timestamp" : "0x99dbfea7",
"il_offset" : "0x00000"
}
,
{
"is_managed" : "true",
"guid" : "984A2982-ED90-47B7-AD22-E07A10E379D4",
"token" : "0x6000196",
"native_offset" : "0x0",
"filename" : "Microsoft.Build.Tasks.Core.dll",
"sizeofimage" : "0x16a000",
"timestamp" : "0xdd55468c",
"il_offset" : "0x0000d"
}
,
{
"is_managed" : "true",
"guid" : "984A2982-ED90-47B7-AD22-E07A10E379D4",
"token" : "0x600018a",
"native_offset" : "0x0",
"filename" : "Microsoft.Build.Tasks.Core.dll",
"sizeofimage" : "0x16a000",
"timestamp" : "0xdd55468c",
"il_offset" : "0x0001c"
}
,
{
"is_managed" : "true",
"guid" : "984A2982-ED90-47B7-AD22-E07A10E379D4",
"token" : "0x6001186",
"native_offset" : "0x0",
"filename" : "Microsoft.Build.Tasks.Core.dll",
"sizeofimage" : "0x16a000",
"timestamp" : "0xdd55468c",
"il_offset" : "0x0000d"
}
,
{
"is_managed" : "true",
"guid" : "984A2982-ED90-47B7-AD22-E07A10E379D4",
"token" : "0x60014be",
"native_offset" : "0x0",
"filename" : "Microsoft.Build.Tasks.Core.dll",
"sizeofimage" : "0x16a000",
"timestamp" : "0xdd55468c",
"il_offset" : "0x00000"
}
,
{
"is_managed" : "true",
"guid" : "533173D2-4DAE-4608-99D2-B10975534BB0",
"token" : "0x600652a",
"native_offset" : "0x0",
"filename" : "mscorlib.dll",
"sizeofimage" : "0x472000",
"timestamp" : "0x99dbfea7",
"il_offset" : "0x00034"
}
,
{
"is_managed" : "true",
"guid" : "984A2982-ED90-47B7-AD22-E07A10E379D4",
"token" : "0x600018d",
"native_offset" : "0x0",
"filename" : "Microsoft.Build.Tasks.Core.dll",
"sizeofimage" : "0x16a000",
"timestamp" : "0xdd55468c",
"il_offset" : "0x00006"
}
,
{
"is_managed" : "true",
"guid" : "984A2982-ED90-47B7-AD22-E07A10E379D4",
"token" : "0x00000",
"native_offset" : "0x0",
"filename" : "Microsoft.Build.Tasks.Core.dll",
"sizeofimage" : "0x16a000",
"timestamp" : "0xdd55468c",
"il_offset" : "0x0005c"
}
,
{
"is_managed" : "true",
"guid" : "984A2982-ED90-47B7-AD22-E07A10E379D4",
"token" : "0x600093c",
"native_offset" : "0x0",
"filename" : "Microsoft.Build.Tasks.Core.dll",
"sizeofimage" : "0x16a000",
"timestamp" : "0xdd55468c",
"il_offset" : "0x00010"
}
,
{
"is_managed" : "true",
"guid" : "984A2982-ED90-47B7-AD22-E07A10E379D4",
"token" : "0x6000250",
"native_offset" : "0x0",
"filename" : "Microsoft.Build.Tasks.Core.dll",
"sizeofimage" : "0x16a000",
"timestamp" : "0xdd55468c",
"il_offset" : "0x00023"
}
,
{
"is_managed" : "true",
"guid" : "984A2982-ED90-47B7-AD22-E07A10E379D4",
"token" : "0x6000252",
"native_offset" : "0x0",
"filename" : "Microsoft.Build.Tasks.Core.dll",
"sizeofimage" : "0x16a000",
"timestamp" : "0xdd55468c",
"il_offset" : "0x0003a"
}
,
{
"is_managed" : "true",
"guid" : "984A2982-ED90-47B7-AD22-E07A10E379D4",
"token" : "0x600025e",
"native_offset" : "0x0",
"filename" : "Microsoft.Build.Tasks.Core.dll",
"sizeofimage" : "0x16a000",
"timestamp" : "0xdd55468c",
"il_offset" : "0x000ea"
}
,
{
"is_managed" : "true",
"guid" : "984A2982-ED90-47B7-AD22-E07A10E379D4",
"token" : "0x600025d",
"native_offset" : "0x0",
"filename" : "Microsoft.Build.Tasks.Core.dll",
"sizeofimage" : "0x16a000",
"timestamp" : "0xdd55468c",
"il_offset" : "0x0000a"
}
,
{
"is_managed" : "true",
"guid" : "984A2982-ED90-47B7-AD22-E07A10E379D4",
"token" : "0x600025c",
"native_offset" : "0x0",
"filename" : "Microsoft.Build.Tasks.Core.dll",
"sizeofimage" : "0x16a000",
"timestamp" : "0xdd55468c",
"il_offset" : "0x00038"
}
,
{
"is_managed" : "true",
"guid" : "984A2982-ED90-47B7-AD22-E07A10E379D4",
"token" : "0x60002fe",
"native_offset" : "0x0",
"filename" : "Microsoft.Build.Tasks.Core.dll",
"sizeofimage" : "0x16a000",
"timestamp" : "0xdd55468c",
"il_offset" : "0x00515"
}
,
{
"is_managed" : "true",
"guid" : "984A2982-ED90-47B7-AD22-E07A10E379D4",
"token" : "0x600030f",
"native_offset" : "0x0",
"filename" : "Microsoft.Build.Tasks.Core.dll",
"sizeofimage" : "0x16a000",
"timestamp" : "0xdd55468c",
"il_offset" : "0x00000"
}
,
{
"is_managed" : "true",
"guid" : "F5C26A75-6012-4A5F-9B72-55EB2A34A9A9",
"token" : "0x60014e6",
"native_offset" : "0x0",
"filename" : "Microsoft.Build.dll",
"sizeofimage" : "0x1e6000",
"timestamp" : "0xd74c9315",
"il_offset" : "0x00029"
}
,
{
"is_managed" : "true",
"guid" : "F5C26A75-6012-4A5F-9B72-55EB2A34A9A9",
"token" : "0x6002296",
"native_offset" : "0x0",
"filename" : "Microsoft.Build.dll",
"sizeofimage" : "0x1e6000",
"timestamp" : "0xd74c9315",
"il_offset" : "0x002a9"
}
,
{
"is_managed" : "true",
"guid" : "533173D2-4DAE-4608-99D2-B10975534BB0",
"token" : "0x6004619",
"native_offset" : "0x0",
"filename" : "mscorlib.dll",
"sizeofimage" : "0x472000",
"timestamp" : "0x99dbfea7",
"il_offset" : "0x0002c"
}
,
{
"is_managed" : "true",
"guid" : "F5C26A75-6012-4A5F-9B72-55EB2A34A9A9",
"token" : "0x6001387",
"native_offset" : "0x0",
"filename" : "Microsoft.Build.dll",
"sizeofimage" : "0x1e6000",
"timestamp" : "0xd74c9315",
"il_offset" : "0x00046"
}
,
{
"is_managed" : "true",
"guid" : "F5C26A75-6012-4A5F-9B72-55EB2A34A9A9",
"token" : "0x6002291",
"native_offset" : "0x0",
"filename" : "Microsoft.Build.dll",
"sizeofimage" : "0x1e6000",
"timestamp" : "0xd74c9315",
"il_offset" : "0x00065"
}
,
{
"is_managed" : "true",
"guid" : "533173D2-4DAE-4608-99D2-B10975534BB0",
"token" : "0x6004619",
"native_offset" : "0x0",
"filename" : "mscorlib.dll",
"sizeofimage" : "0x472000",
"timestamp" : "0x99dbfea7",
"il_offset" : "0x0002c"
}
,
{
"is_managed" : "true",
"guid" : "F5C26A75-6012-4A5F-9B72-55EB2A34A9A9",
"token" : "0x6001385",
"native_offset" : "0x0",
"filename" : "Microsoft.Build.dll",
"sizeofimage" : "0x1e6000",
"timestamp" : "0xd74c9315",
"il_offset" : "0x00046"
}
,
{
"is_managed" : "true",
"guid" : "F5C26A75-6012-4A5F-9B72-55EB2A34A9A9",
"token" : "0x600228d",
"native_offset" : "0x0",
"filename" : "Microsoft.Build.dll",
"sizeofimage" : "0x1e6000",
"timestamp" : "0xd74c9315",
"il_offset" : "0x001b8"
}
,
{
"is_managed" : "true",
"guid" : "533173D2-4DAE-4608-99D2-B10975534BB0",
"token" : "0x6004619",
"native_offset" : "0x0",
"filename" : "mscorlib.dll",
"sizeofimage" : "0x472000",
"timestamp" : "0x99dbfea7",
"il_offset" : "0x0002c"
}
,
{
"is_managed" : "true",
"guid" : "F5C26A75-6012-4A5F-9B72-55EB2A34A9A9",
"token" : "0x6001380",
"native_offset" : "0x0",
"filename" : "Microsoft.Build.dll",
"sizeofimage" : "0x1e6000",
"timestamp" : "0xd74c9315",
"il_offset" : "0x0003d"
}
,
{
"is_managed" : "true",
"guid" : "F5C26A75-6012-4A5F-9B72-55EB2A34A9A9",
"token" : "0x600228b",
"native_offset" : "0x0",
"filename" : "Microsoft.Build.dll",
"sizeofimage" : "0x1e6000",
"timestamp" : "0xd74c9315",
"il_offset" : "0x001a9"
}
,
{
"is_managed" : "true",
"guid" : "533173D2-4DAE-4608-99D2-B10975534BB0",
"token" : "0x6004619",
"native_offset" : "0x0",
"filename" : "mscorlib.dll",
"sizeofimage" : "0x472000",
"timestamp" : "0x99dbfea7",
"il_offset" : "0x0002c"
}
,
{
"is_managed" : "true",
"guid" : "F5C26A75-6012-4A5F-9B72-55EB2A34A9A9",
"token" : "0x600137f",
"native_offset" : "0x0",
"filename" : "Microsoft.Build.dll",
"sizeofimage" : "0x1e6000",
"timestamp" : "0xd74c9315",
"il_offset" : "0x0002c"
}
,
{
"is_managed" : "true",
"guid" : "F5C26A75-6012-4A5F-9B72-55EB2A34A9A9",
"token" : "0x6002289",
"native_offset" : "0x0",
"filename" : "Microsoft.Build.dll",
"sizeofimage" : "0x1e6000",
"timestamp" : "0xd74c9315",
"il_offset" : "0x0018b"
}
,
{
"is_managed" : "true",
"guid" : "533173D2-4DAE-4608-99D2-B10975534BB0",
"token" : "0x6004619",
"native_offset" : "0x0",
"filename" : "mscorlib.dll",
"sizeofimage" : "0x472000",
"timestamp" : "0x99dbfea7",
"il_offset" : "0x0002c"
}
,
{
"is_managed" : "true",
"guid" : "F5C26A75-6012-4A5F-9B72-55EB2A34A9A9",
"token" : "0x600137a",
"native_offset" : "0x0",
"filename" : "Microsoft.Build.dll",
"sizeofimage" : "0x1e6000",
"timestamp" : "0xd74c9315",
"il_offset" : "0x00061"
}
,
{
"is_managed" : "true",
"guid" : "F5C26A75-6012-4A5F-9B72-55EB2A34A9A9",
"token" : "0x6002287",
"native_offset" : "0x0",
"filename" : "Microsoft.Build.dll",
"sizeofimage" : "0x1e6000",
"timestamp" : "0xd74c9315",
"il_offset" : "0x0005f"
}
,
{
"is_managed" : "true",
"guid" : "533173D2-4DAE-4608-99D2-B10975534BB0",
"token" : "0x6004619",
"native_offset" : "0x0",
"filename" : "mscorlib.dll",
"sizeofimage" : "0x472000",
"timestamp" : "0x99dbfea7",
"il_offset" : "0x0002c"
}
,
{
"is_managed" : "true",
"guid" : "F5C26A75-6012-4A5F-9B72-55EB2A34A9A9",
"token" : "0x6001354",
"native_offset" : "0x0",
"filename" : "Microsoft.Build.dll",
"sizeofimage" : "0x1e6000",
"timestamp" : "0xd74c9315",
"il_offset" : "0x00046"
}
,
{
"is_managed" : "true",
"guid" : "F5C26A75-6012-4A5F-9B72-55EB2A34A9A9",
"token" : "0x6002285",
"native_offset" : "0x0",
"filename" : "Microsoft.Build.dll",
"sizeofimage" : "0x1e6000",
"timestamp" : "0xd74c9315",
"il_offset" : "0x002b7"
}
,
{
"is_managed" : "true",
"guid" : "533173D2-4DAE-4608-99D2-B10975534BB0",
"token" : "0x600460e",
"native_offset" : "0x0",
"filename" : "mscorlib.dll",
"sizeofimage" : "0x472000",
"timestamp" : "0x99dbfea7",
"il_offset" : "0x0002c"
}
,
{
"is_managed" : "true",
"guid" : "F5C26A75-6012-4A5F-9B72-55EB2A34A9A9",
"token" : "0x600134d",
"native_offset" : "0x0",
"filename" : "Microsoft.Build.dll",
"sizeofimage" : "0x1e6000",
"timestamp" : "0xd74c9315",
"il_offset" : "0x0003d"
}
,
{
"is_managed" : "true",
"guid" : "F5C26A75-6012-4A5F-9B72-55EB2A34A9A9",
"token" : "0x600227f",
"native_offset" : "0x0",
"filename" : "Microsoft.Build.dll",
"sizeofimage" : "0x1e6000",
"timestamp" : "0xd74c9315",
"il_offset" : "0x00429"
}
,
{
"is_managed" : "true",
"guid" : "533173D2-4DAE-4608-99D2-B10975534BB0",
"token" : "0x60024e2",
"native_offset" : "0x0",
"filename" : "mscorlib.dll",
"sizeofimage" : "0x472000",
"timestamp" : "0x99dbfea7",
"il_offset" : "0x00014"
}
,
{
"is_managed" : "true",
"guid" : "F5C26A75-6012-4A5F-9B72-55EB2A34A9A9",
"token" : "0x6002267",
"native_offset" : "0x0",
"filename" : "Microsoft.Build.dll",
"sizeofimage" : "0x1e6000",
"timestamp" : "0xd74c9315",
"il_offset" : "0x0001a"
}
,
{
"is_managed" : "true",
"guid" : "533173D2-4DAE-4608-99D2-B10975534BB0",
"token" : "0x00000",
"native_offset" : "0x0",
"filename" : "mscorlib.dll",
"sizeofimage" : "0x472000",
"timestamp" : "0x99dbfea7",
"il_offset" : "0x0002a"
}

],
"unmanaged_frames" : [
{
"is_managed" : "false",
"native_address" : "0x559018892b52",
"native_offset" : "0x00000"
}
,
{
"is_managed" : "false",
"native_address" : "0x559018a88b39",
"native_offset" : "0x00000"
}
,
{
"is_managed" : "false",
"native_address" : "0x559018a89d42",
"native_offset" : "0x00000"
}
,
{
"is_managed" : "false",
"native_address" : "0x559018a9338c",
"native_offset" : "0x00000"
}
,
{
"is_managed" : "false",
"native_address" : "0x5590188e7dc9",
"native_offset" : "0x00000"
}
,
{
"is_managed" : "false",
"native_address" : "0x5590188e7fdd",
"native_offset" : "0x00000"
}
,
{
"is_managed" : "false",
"native_address" : "0x559018894e47",
"native_offset" : "0x00000"
}
,
{
"is_managed" : "false",
"native_address" : "0x5590188e17a5",
"native_offset" : "0x00000"
}
,
{
"is_managed" : "false",
"native_address" : "0x559018a45f74",
"native_offset" : "0x00000"
}
,
{
"is_managed" : "false",
"native_address" : "0x7f5a242f15e0",
"native_offset" : "0x00000"
}

]
},
{
"is_managed" : true,
"offset_free_hash" : "0x440975f7e",
"offset_rich_hash" : "0x4409762b2",
"crashed" : false,
"native_thread_id" : "0x7f5a0e2ff700",
"thread_info_addr" : "0x7f59f40008d0",
"thread_name" : "Thread Pool Wor",
"ctx" : {
"IP" : "0x7f5a729ce36c",
"SP" : "0x7f5a0e2fe3a0",
"BP" : "0x5"
},
"managed_frames" : [
{
"is_managed" : "false",
"native_address" : "unregistered"
}
,
{
"is_managed" : "true",
"guid" : "9C6E2CB7-DDD8-473F-A420-642DDCF7CE48",
"token" : "0x00000",
"native_offset" : "0x0",
"filename" : "System.dll",
"sizeofimage" : "0x286000",
"timestamp" : "0xe193f384",
"il_offset" : "0x00000"
}
,
{
"is_managed" : "true",
"guid" : "9C6E2CB7-DDD8-473F-A420-642DDCF7CE48",
"token" : "0x6003e17",
"native_offset" : "0x0",
"filename" : "System.dll",
"sizeofimage" : "0x286000",
"timestamp" : "0xe193f384",
"il_offset" : "0x00012"
}
,
{
"is_managed" : "true",
"guid" : "9C6E2CB7-DDD8-473F-A420-642DDCF7CE48",
"token" : "0x60041bc",
"native_offset" : "0x0",
"filename" : "System.dll",
"sizeofimage" : "0x286000",
"timestamp" : "0xe193f384",
"il_offset" : "0x00027"
}
,
{
"is_managed" : "true",
"guid" : "9C6E2CB7-DDD8-473F-A420-642DDCF7CE48",
"token" : "0x60041bb",
"native_offset" : "0x0",
"filename" : "System.dll",
"sizeofimage" : "0x286000",
"timestamp" : "0xe193f384",
"il_offset" : "0x002d1"
}
,
{
"is_managed" : "true",
"guid" : "9C6E2CB7-DDD8-473F-A420-642DDCF7CE48",
"token" : "0x60043b1",
"native_offset" : "0x0",
"filename" : "System.dll",
"sizeofimage" : "0x286000",
"timestamp" : "0xe193f384",
"il_offset" : "0x00000"
}
,
{
"is_managed" : "true",
"guid" : "533173D2-4DAE-4608-99D2-B10975534BB0",
"token" : "0x00000",
"native_offset" : "0x0",
"filename" : "mscorlib.dll",
"sizeofimage" : "0x472000",
"timestamp" : "0x99dbfea7",
"il_offset" : "0x0002a"
}

],
"unmanaged_frames" : [
{
"is_managed" : "false",
"native_address" : "0x559018892b52",
"native_offset" : "0x00000"
}
,
{
"is_managed" : "false",
"native_address" : "0x559018a88b39",
"native_offset" : "0x00000"
}
,
{
"is_managed" : "false",
"native_address" : "0x559018a89d42",
"native_offset" : "0x00000"
}
,
{
"is_managed" : "false",
"native_address" : "0x559018a93247",
"native_offset" : "0x00000"
}
,
{
"is_managed" : "false",
"native_address" : "0x5590188e70df",
"native_offset" : "0x00000"
}
,
{
"is_managed" : "false",
"native_address" : "0x7f5a729cf3c0",
"native_offset" : "0x00000"
}
,
{
"is_managed" : "false",
"native_address" : "0x7f5a729ce36c",
"native_offset" : "0x00000"
}
,
{
"is_managed" : "false",
"native_address" : "0x7f5a6e4326ff",
"native_offset" : "0x00000"
}
,
{
"is_managed" : "false",
"native_address" : "0x7f5a6e4311f6",
"native_offset" : "0x00000"
}
,
{
"is_managed" : "true",
"guid" : "9C6E2CB7-DDD8-473F-A420-642DDCF7CE48",
"token" : "0x00000",
"native_offset" : "0x0",
"filename" : "System.dll",
"sizeofimage" : "0x286000",
"timestamp" : "0xe193f384",
"il_offset" : "0x00000"
}

]
},
{
"is_managed" : true,
"offset_free_hash" : "0x208aa6d2f",
"offset_rich_hash" : "0x208aa6d59",
"crashed" : false,
"native_thread_id" : "0x7f5a6de10700",
"thread_info_addr" : "0x7f5a58000b60",
"thread_name" : "Thread Pool Wor",
"ctx" : {
"IP" : "0x7f5a729ca7b1",
"SP" : "0x7f5a6de0ece0",
"BP" : "0x559018cc1020"
},
"managed_frames" : [
{
"is_managed" : "false",
"native_address" : "unregistered"
}
,
{
"is_managed" : "true",
"guid" : "533173D2-4DAE-4608-99D2-B10975534BB0",
"token" : "0x00000",
"native_offset" : "0x0",
"filename" : "mscorlib.dll",
"sizeofimage" : "0x472000",
"timestamp" : "0x99dbfea7",
"il_offset" : "0x00000"
}
,
{
"is_managed" : "true",
"guid" : "533173D2-4DAE-4608-99D2-B10975534BB0",
"token" : "0x00000",
"native_offset" : "0x0",
"filename" : "mscorlib.dll",
"sizeofimage" : "0x472000",
"timestamp" : "0x99dbfea7",
"il_offset" : "0x0002a"
}

],
"unmanaged_frames" : [
{
"is_managed" : "false",
"native_address" : "0x559018892b52",
"native_offset" : "0x00000"
}
,
{
"is_managed" : "false",
"native_address" : "0x559018a88b39",
"native_offset" : "0x00000"
}
,
{
"is_managed" : "false",
"native_address" : "0x559018a89d42",
"native_offset" : "0x00000"
}
,
{
"is_managed" : "false",
"native_address" : "0x559018a93247",
"native_offset" : "0x00000"
}
,
{
"is_managed" : "false",
"native_address" : "0x5590188e70df",
"native_offset" : "0x00000"
}
,
{
"is_managed" : "false",
"native_address" : "0x7f5a729cf3c0",
"native_offset" : "0x00000"
}
,
{
"is_managed" : "false",
"native_address" : "0x7f5a729ca7b1",
"native_offset" : "0x00000"
}
,
{
"is_managed" : "false",
"native_address" : "0x559018b40a0e",
"native_offset" : "0x00000"
}
,
{
"is_managed" : "false",
"native_address" : "0x559018a9d448",
"native_offset" : "0x00000"
}
,
{
"is_managed" : "false",
"native_address" : "0x559018a9fabb",
"native_offset" : "0x00000"
}
,
{
"is_managed" : "false",
"native_address" : "0x559018a8ff9a",
"native_offset" : "0x00000"
}
,
{
"is_managed" : "false",
"native_address" : "0x559018a249a6",
"native_offset" : "0x00000"
}
,
{
"is_managed" : "true",
"guid" : "533173D2-4DAE-4608-99D2-B10975534BB0",
"token" : "0x00000",
"native_offset" : "0x0",
"filename" : "mscorlib.dll",
"sizeofimage" : "0x472000",
"timestamp" : "0x99dbfea7",
"il_offset" : "0x00000"
}

]
},
{
"is_managed" : false,
"offset_free_hash" : "0x0",
"offset_rich_hash" : "0x0",
"crashed" : false,
"native_thread_id" : "0x7f5a4cd68700",
"thread_info_addr" : "0x7f5a2c000b60",
"thread_name" : "Thread Pool Wor",
"ctx" : {
"IP" : "0x7f5a729cd618",
"SP" : "0x7f5a4cd67c70",
"BP" : "0x559018cc1d88"
},
"unmanaged_frames" : [
{
"is_managed" : "false",
"native_address" : "0x559018892b52",
"native_offset" : "0x00000"
}
,
{
"is_managed" : "false",
"native_address" : "0x559018a88b39",
"native_offset" : "0x00000"
}
,
{
"is_managed" : "false",
"native_address" : "0x559018a89d42",
"native_offset" : "0x00000"
}
,
{
"is_managed" : "false",
"native_address" : "0x559018a93247",
"native_offset" : "0x00000"
}
,
{
"is_managed" : "false",
"native_address" : "0x5590188e70df",
"native_offset" : "0x00000"
}
,
{
"is_managed" : "false",
"native_address" : "0x7f5a729cf3c0",
"native_offset" : "0x00000"
}
,
{
"is_managed" : "false",
"native_address" : "0x7f5a729cd618",
"native_offset" : "0x00000"
}
,
{
"is_managed" : "false",
"native_address" : "0x7f5a729cd743",
"native_offset" : "0x00000"
}
,
{
"is_managed" : "false",
"native_address" : "0x559018ae52b8",
"native_offset" : "0x00000"
}
,
{
"is_managed" : "false",
"native_address" : "0x559018a92afa",
"native_offset" : "0x00000"
}
,
{
"is_managed" : "false",
"native_address" : "0x7f5a729c3609",
"native_offset" : "0x00000"
}
,
{
"is_managed" : "false",
"native_address" : "0x7f5a7259c293",
"native_offset" : "0x00000"
}

]
},
{
"is_managed" : true,
"offset_free_hash" : "0x502cf4839",
"offset_rich_hash" : "0x502cf49b3",
"crashed" : false,
"native_thread_id" : "0x7f5a4ddfe700",
"thread_info_addr" : "0x7f5a44000b60",
"thread_name" : "mono",
"ctx" : {
"IP" : "0x7f5a729ca376",
"SP" : "0x7f5a4ddfd2b0",
"BP" : "0x5590192381e0"
},
"managed_frames" : [
{
"is_managed" : "false",
"native_address" : "unregistered"
}
,
{
"is_managed" : "true",
"guid" : "533173D2-4DAE-4608-99D2-B10975534BB0",
"token" : "0x00000",
"native_offset" : "0x0",
"filename" : "mscorlib.dll",
"sizeofimage" : "0x472000",
"timestamp" : "0x99dbfea7",
"il_offset" : "0x00000"
}
,
{
"is_managed" : "true",
"guid" : "533173D2-4DAE-4608-99D2-B10975534BB0",
"token" : "0x6001e40",
"native_offset" : "0x0",
"filename" : "mscorlib.dll",
"sizeofimage" : "0x472000",
"timestamp" : "0x99dbfea7",
"il_offset" : "0x000d9"
}
,
{
"is_managed" : "true",
"guid" : "9C6E2CB7-DDD8-473F-A420-642DDCF7CE48",
"token" : "0x6003b86",
"native_offset" : "0x0",
"filename" : "System.dll",
"sizeofimage" : "0x286000",
"timestamp" : "0xe193f384",
"il_offset" : "0x00067"
}
,
{
"is_managed" : "true",
"guid" : "9C6E2CB7-DDD8-473F-A420-642DDCF7CE48",
"token" : "0x6003b85",
"native_offset" : "0x0",
"filename" : "System.dll",
"sizeofimage" : "0x286000",
"timestamp" : "0xe193f384",
"il_offset" : "0x00006"
}
,
{
"is_managed" : "true",
"guid" : "9C6E2CB7-DDD8-473F-A420-642DDCF7CE48",
"token" : "0x6003b80",
"native_offset" : "0x0",
"filename" : "System.dll",
"sizeofimage" : "0x286000",
"timestamp" : "0xe193f384",
"il_offset" : "0x00009"
}
,
{
"is_managed" : "true",
"guid" : "93D49E4C-37E6-4B72-A22F-629901CA56D9",
"token" : "0x600036a",
"native_offset" : "0x0",
"filename" : "Microsoft.CodeAnalysis.Razor.Workspaces.dll",
"sizeofimage" : "0x32000",
"timestamp" : "0xcc81e431",
"il_offset" : "0x00001"
}
,
{
"is_managed" : "true",
"guid" : "533173D2-4DAE-4608-99D2-B10975534BB0",
"token" : "0x00000",
"native_offset" : "0x0",
"filename" : "mscorlib.dll",
"sizeofimage" : "0x472000",
"timestamp" : "0x99dbfea7",
"il_offset" : "0x0002a"
}

],
"unmanaged_frames" : [
{
"is_managed" : "false",
"native_address" : "0x559018892b52",
"native_offset" : "0x00000"
}
,
{
"is_managed" : "false",
"native_address" : "0x559018a88b39",
"native_offset" : "0x00000"
}
,
{
"is_managed" : "false",
"native_address" : "0x559018a89d42",
"native_offset" : "0x00000"
}
,
{
"is_managed" : "false",
"native_address" : "0x559018a93247",
"native_offset" : "0x00000"
}
,
{
"is_managed" : "false",
"native_address" : "0x5590188e70df",
"native_offset" : "0x00000"
}
,
{
"is_managed" : "false",
"native_address" : "0x7f5a729cf3c0",
"native_offset" : "0x00000"
}
,
{
"is_managed" : "false",
"native_address" : "0x7f5a729ca376",
"native_offset" : "0x00000"
}
,
{
"is_managed" : "false",
"native_address" : "0x559018b40a68",
"native_offset" : "0x00000"
}
,
{
"is_managed" : "false",
"native_address" : "0x559018a9dc7a",
"native_offset" : "0x00000"
}
,
{
"is_managed" : "false",
"native_address" : "0x559018a9f27a",
"native_offset" : "0x00000"
}
,
{
"is_managed" : "false",
"native_address" : "0x559018ad92de",
"native_offset" : "0x00000"
}
,
{
"is_managed" : "false",
"native_address" : "0x559018a2262b",
"native_offset" : "0x00000"
}
,
{
"is_managed" : "true",
"guid" : "533173D2-4DAE-4608-99D2-B10975534BB0",
"token" : "0x00000",
"native_offset" : "0x0",
"filename" : "mscorlib.dll",
"sizeofimage" : "0x472000",
"timestamp" : "0x99dbfea7",
"il_offset" : "0x00000"
}

]
},
{
"is_managed" : false,
"offset_free_hash" : "0x0",
"offset_rich_hash" : "0x0",
"crashed" : false,
"native_thread_id" : "0x7f5a218fe700",
"thread_info_addr" : "0x7f5a08000b60",
"thread_name" : "Thread Pool Wor",
"ctx" : {
"IP" : "0x7f5a729cd618",
"SP" : "0x7f5a218fdc70",
"BP" : "0x559018cc1d88"
},
"unmanaged_frames" : [
{
"is_managed" : "false",
"native_address" : "0x559018892b52",
"native_offset" : "0x00000"
}
,
{
"is_managed" : "false",
"native_address" : "0x559018a88b39",
"native_offset" : "0x00000"
}
,
{
"is_managed" : "false",
"native_address" : "0x559018a89d42",
"native_offset" : "0x00000"
}
,
{
"is_managed" : "false",
"native_address" : "0x559018a93247",
"native_offset" : "0x00000"
}
,
{
"is_managed" : "false",
"native_address" : "0x5590188e70df",
"native_offset" : "0x00000"
}
,
{
"is_managed" : "false",
"native_address" : "0x7f5a729cf3c0",
"native_offset" : "0x00000"
}
,
{
"is_managed" : "false",
"native_address" : "0x7f5a729cd618",
"native_offset" : "0x00000"
}
,
{
"is_managed" : "false",
"native_address" : "0x7f5a729cd743",
"native_offset" : "0x00000"
}
,
{
"is_managed" : "false",
"native_address" : "0x559018ae52b8",
"native_offset" : "0x00000"
}
,
{
"is_managed" : "false",
"native_address" : "0x559018a92afa",
"native_offset" : "0x00000"
}
,
{
"is_managed" : "false",
"native_address" : "0x7f5a729c3609",
"native_offset" : "0x00000"
}
,
{
"is_managed" : "false",
"native_address" : "0x7f5a7259c293",
"native_offset" : "0x00000"
}

]
},
{
"is_managed" : false,
"offset_free_hash" : "0x0",
"offset_rich_hash" : "0x0",
"crashed" : false,
"native_thread_id" : "0x7f5a4c38e700",
"thread_info_addr" : "0x7f5a1c000b60",
"thread_name" : "Thread Pool Wor",
"ctx" : {
"IP" : "0x7f5a729cd618",
"SP" : "0x7f5a4c38dc70",
"BP" : "0x559018cc1d88"
},
"unmanaged_frames" : [
{
"is_managed" : "false",
"native_address" : "0x559018892b52",
"native_offset" : "0x00000"
}
,
{
"is_managed" : "false",
"native_address" : "0x559018a88b39",
"native_offset" : "0x00000"
}
,
{
"is_managed" : "false",
"native_address" : "0x559018a89d42",
"native_offset" : "0x00000"
}
,
{
"is_managed" : "false",
"native_address" : "0x559018a93247",
"native_offset" : "0x00000"
}
,
{
"is_managed" : "false",
"native_address" : "0x5590188e70df",
"native_offset" : "0x00000"
}
,
{
"is_managed" : "false",
"native_address" : "0x7f5a729cf3c0",
"native_offset" : "0x00000"
}
,
{
"is_managed" : "false",
"native_address" : "0x7f5a729cd618",
"native_offset" : "0x00000"
}
,
{
"is_managed" : "false",
"native_address" : "0x7f5a729cd743",
"native_offset" : "0x00000"
}
,
{
"is_managed" : "false",
"native_address" : "0x559018ae52b8",
"native_offset" : "0x00000"
}
,
{
"is_managed" : "false",
"native_address" : "0x559018a92afa",
"native_offset" : "0x00000"
}
,
{
"is_managed" : "false",
"native_address" : "0x7f5a729c3609",
"native_offset" : "0x00000"
}
,
{
"is_managed" : "false",
"native_address" : "0x7f5a7259c293",
"native_offset" : "0x00000"
}

]
},
{
"is_managed" : false,
"offset_free_hash" : "0x0",
"offset_rich_hash" : "0x0",
"crashed" : false,
"native_thread_id" : "0x7f5a4cf69700",
"thread_info_addr" : "0x7f5a38000b60",
"thread_name" : "Thread Pool Wor",
"ctx" : {
"IP" : "0x7f5a729cd618",
"SP" : "0x7f5a4cf68c70",
"BP" : "0x559018cc1d88"
},
"unmanaged_frames" : [
{
"is_managed" : "false",
"native_address" : "0x559018892b52",
"native_offset" : "0x00000"
}
,
{
"is_managed" : "false",
"native_address" : "0x559018a88b39",
"native_offset" : "0x00000"
}
,
{
"is_managed" : "false",
"native_address" : "0x559018a89d42",
"native_offset" : "0x00000"
}
,
{
"is_managed" : "false",
"native_address" : "0x559018a93247",
"native_offset" : "0x00000"
}
,
{
"is_managed" : "false",
"native_address" : "0x5590188e70df",
"native_offset" : "0x00000"
}
,
{
"is_managed" : "false",
"native_address" : "0x7f5a729cf3c0",
"native_offset" : "0x00000"
}
,
{
"is_managed" : "false",
"native_address" : "0x7f5a729cd618",
"native_offset" : "0x00000"
}
,
{
"is_managed" : "false",
"native_address" : "0x7f5a729cd743",
"native_offset" : "0x00000"
}
,
{
"is_managed" : "false",
"native_address" : "0x559018ae52b8",
"native_offset" : "0x00000"
}
,
{
"is_managed" : "false",
"native_address" : "0x559018a92afa",
"native_offset" : "0x00000"
}
,
{
"is_managed" : "false",
"native_address" : "0x7f5a729c3609",
"native_offset" : "0x00000"
}
,
{
"is_managed" : "false",
"native_address" : "0x7f5a7259c293",
"native_offset" : "0x00000"
}

]
},
{
"is_managed" : false,
"offset_free_hash" : "0x0",
"offset_rich_hash" : "0x0",
"crashed" : false,
"native_thread_id" : "0x7f5a6e21a700",
"thread_info_addr" : "0x7f5a60000b60",
"thread_name" : "mono",
"ctx" : {
"IP" : "0x7f5a729ca7b1",
"SP" : "0x7f5a6e219bc0",
"BP" : "0x559018cd0860"
},
"unmanaged_frames" : [
{
"is_managed" : "false",
"native_address" : "0x559018892b52",
"native_offset" : "0x00000"
}
,
{
"is_managed" : "false",
"native_address" : "0x559018a88b39",
"native_offset" : "0x00000"
}
,
{
"is_managed" : "false",
"native_address" : "0x559018a89d42",
"native_offset" : "0x00000"
}
,
{
"is_managed" : "false",
"native_address" : "0x559018a93247",
"native_offset" : "0x00000"
}
,
{
"is_managed" : "false",
"native_address" : "0x5590188e70df",
"native_offset" : "0x00000"
}
,
{
"is_managed" : "false",
"native_address" : "0x7f5a729cf3c0",
"native_offset" : "0x00000"
}
,
{
"is_managed" : "false",
"native_address" : "0x7f5a729ca7b1",
"native_offset" : "0x00000"
}
,
{
"is_managed" : "false",
"native_address" : "0x559018b40a0e",
"native_offset" : "0x00000"
}
,
{
"is_managed" : "false",
"native_address" : "0x559018b4b7d9",
"native_offset" : "0x00000"
}
,
{
"is_managed" : "false",
"native_address" : "0x559018ae5f53",
"native_offset" : "0x00000"
}
,
{
"is_managed" : "false",
"native_address" : "0x559018a92afa",
"native_offset" : "0x00000"
}
,
{
"is_managed" : "false",
"native_address" : "0x7f5a729c3609",
"native_offset" : "0x00000"
}
,
{
"is_managed" : "false",
"native_address" : "0x7f5a7259c293",
"native_offset" : "0x00000"
}

]
},
{
"is_managed" : false,
"offset_free_hash" : "0x0",
"offset_rich_hash" : "0x0",
"crashed" : false,
"native_thread_id" : "0x7f5a21aff700",
"thread_info_addr" : "0x7f5a14000b60",
"thread_name" : "Thread Pool Wor",
"ctx" : {
"IP" : "0x7f5a729cd618",
"SP" : "0x7f5a21afec70",
"BP" : "0x559018cc1d88"
},
"unmanaged_frames" : [
{
"is_managed" : "false",
"native_address" : "0x559018892b52",
"native_offset" : "0x00000"
}
,
{
"is_managed" : "false",
"native_address" : "0x559018a88b39",
"native_offset" : "0x00000"
}
,
{
"is_managed" : "false",
"native_address" : "0x559018a89d42",
"native_offset" : "0x00000"
}
,
{
"is_managed" : "false",
"native_address" : "0x559018a93247",
"native_offset" : "0x00000"
}
,
{
"is_managed" : "false",
"native_address" : "0x5590188e70df",
"native_offset" : "0x00000"
}
,
{
"is_managed" : "false",
"native_address" : "0x7f5a729cf3c0",
"native_offset" : "0x00000"
}
,
{
"is_managed" : "false",
"native_address" : "0x7f5a729cd618",
"native_offset" : "0x00000"
}
,
{
"is_managed" : "false",
"native_address" : "0x7f5a729cd743",
"native_offset" : "0x00000"
}
,
{
"is_managed" : "false",
"native_address" : "0x559018ae52b8",
"native_offset" : "0x00000"
}
,
{
"is_managed" : "false",
"native_address" : "0x559018a92afa",
"native_offset" : "0x00000"
}
,
{
"is_managed" : "false",
"native_address" : "0x7f5a729c3609",
"native_offset" : "0x00000"
}
,
{
"is_managed" : "false",
"native_address" : "0x7f5a7259c293",
"native_offset" : "0x00000"
}

]
},
{
"is_managed" : true,
"offset_free_hash" : "0xf3b5b5005",
"offset_rich_hash" : "0xf3b5b5418",
"crashed" : false,
"native_thread_id" : "0x7f5a4c58f700",
"thread_info_addr" : "0x7f5a28000b60",
"thread_name" : "Thread Pool Wor",
"ctx" : {
"IP" : "0x7f5a729ca376",
"SP" : "0x7f5a4c58d020",
"BP" : "0x5590192367a0"
},
"managed_frames" : [
{
"is_managed" : "false",
"native_address" : "unregistered"
}
,
{
"is_managed" : "true",
"guid" : "533173D2-4DAE-4608-99D2-B10975534BB0",
"token" : "0x00000",
"native_offset" : "0x0",
"filename" : "mscorlib.dll",
"sizeofimage" : "0x472000",
"timestamp" : "0x99dbfea7",
"il_offset" : "0x00000"
}
,
{
"is_managed" : "true",
"guid" : "F5C26A75-6012-4A5F-9B72-55EB2A34A9A9",
"token" : "0x6000cbd",
"native_offset" : "0x0",
"filename" : "Microsoft.Build.dll",
"sizeofimage" : "0x1e6000",
"timestamp" : "0xd74c9315",
"il_offset" : "0x00053"
}
,
{
"is_managed" : "true",
"guid" : "F5C26A75-6012-4A5F-9B72-55EB2A34A9A9",
"token" : "0x6000bd2",
"native_offset" : "0x0",
"filename" : "Microsoft.Build.dll",
"sizeofimage" : "0x1e6000",
"timestamp" : "0xd74c9315",
"il_offset" : "0x00008"
}
,
{
"is_managed" : "true",
"guid" : "F5C26A75-6012-4A5F-9B72-55EB2A34A9A9",
"token" : "0x6000bd5",
"native_offset" : "0x0",
"filename" : "Microsoft.Build.dll",
"sizeofimage" : "0x1e6000",
"timestamp" : "0xd74c9315",
"il_offset" : "0x00007"
}
,
{
"is_managed" : "true",
"guid" : "F5C26A75-6012-4A5F-9B72-55EB2A34A9A9",
"token" : "0x6000e04",
"native_offset" : "0x0",
"filename" : "Microsoft.Build.dll",
"sizeofimage" : "0x1e6000",
"timestamp" : "0xd74c9315",
"il_offset" : "0x000d6"
}
,
{
"is_managed" : "true",
"guid" : "F5C26A75-6012-4A5F-9B72-55EB2A34A9A9",
"token" : "0x6000e05",
"native_offset" : "0x0",
"filename" : "Microsoft.Build.dll",
"sizeofimage" : "0x1e6000",
"timestamp" : "0xd74c9315",
"il_offset" : "0x00000"
}
,
{
"is_managed" : "true",
"guid" : "F5C26A75-6012-4A5F-9B72-55EB2A34A9A9",
"token" : "0x6000df1",
"native_offset" : "0x0",
"filename" : "Microsoft.Build.dll",
"sizeofimage" : "0x1e6000",
"timestamp" : "0xd74c9315",
"il_offset" : "0x00000"
}
,
{
"is_managed" : "true",
"guid" : "F5C26A75-6012-4A5F-9B72-55EB2A34A9A9",
"token" : "0x6000def",
"native_offset" : "0x0",
"filename" : "Microsoft.Build.dll",
"sizeofimage" : "0x1e6000",
"timestamp" : "0xd74c9315",
"il_offset" : "0x00000"
}
,
{
"is_managed" : "true",
"guid" : "F5C26A75-6012-4A5F-9B72-55EB2A34A9A9",
"token" : "0x6000dee",
"native_offset" : "0x0",
"filename" : "Microsoft.Build.dll",
"sizeofimage" : "0x1e6000",
"timestamp" : "0xd74c9315",
"il_offset" : "0x00000"
}
,
{
"is_managed" : "true",
"guid" : "5B92C0EB-ABD3-40EB-AF25-53EAE5BAC6E2",
"token" : "0x6000039",
"native_offset" : "0x0",
"filename" : "OmniSharp.MSBuild.dll",
"sizeofimage" : "0x22000",
"timestamp" : "0x8f37c845",
"il_offset" : "0x0007c"
}
,
{
"is_managed" : "true",
"guid" : "5B92C0EB-ABD3-40EB-AF25-53EAE5BAC6E2",
"token" : "0x60000e6",
"native_offset" : "0x0",
"filename" : "OmniSharp.MSBuild.dll",
"sizeofimage" : "0x22000",
"timestamp" : "0x8f37c845",
"il_offset" : "0x00019"
}
,
{
"is_managed" : "true",
"guid" : "5B92C0EB-ABD3-40EB-AF25-53EAE5BAC6E2",
"token" : "0x600017e",
"native_offset" : "0x0",
"filename" : "OmniSharp.MSBuild.dll",
"sizeofimage" : "0x22000",
"timestamp" : "0x8f37c845",
"il_offset" : "0x00000"
}
,
{
"is_managed" : "true",
"guid" : "533173D2-4DAE-4608-99D2-B10975534BB0",
"token" : "0x00000",
"native_offset" : "0x0",
"filename" : "mscorlib.dll",
"sizeofimage" : "0x472000",
"timestamp" : "0x99dbfea7",
"il_offset" : "0x00042"
}
,
{
"is_managed" : "true",
"guid" : "5B92C0EB-ABD3-40EB-AF25-53EAE5BAC6E2",
"token" : "0x6000054",
"native_offset" : "0x0",
"filename" : "OmniSharp.MSBuild.dll",
"sizeofimage" : "0x22000",
"timestamp" : "0x8f37c845",
"il_offset" : "0x0001b"
}
,
{
"is_managed" : "true",
"guid" : "5B92C0EB-ABD3-40EB-AF25-53EAE5BAC6E2",
"token" : "0x6000053",
"native_offset" : "0x0",
"filename" : "OmniSharp.MSBuild.dll",
"sizeofimage" : "0x22000",
"timestamp" : "0x8f37c845",
"il_offset" : "0x00020"
}
,
{
"is_managed" : "true",
"guid" : "5B92C0EB-ABD3-40EB-AF25-53EAE5BAC6E2",
"token" : "0x6000051",
"native_offset" : "0x0",
"filename" : "OmniSharp.MSBuild.dll",
"sizeofimage" : "0x22000",
"timestamp" : "0x8f37c845",
"il_offset" : "0x000a1"
}
,
{
"is_managed" : "true",
"guid" : "5B92C0EB-ABD3-40EB-AF25-53EAE5BAC6E2",
"token" : "0x6000193",
"native_offset" : "0x0",
"filename" : "OmniSharp.MSBuild.dll",
"sizeofimage" : "0x22000",
"timestamp" : "0x8f37c845",
"il_offset" : "0x00073"
}
,
{
"is_managed" : "true",
"guid" : "533173D2-4DAE-4608-99D2-B10975534BB0",
"token" : "0x6002392",
"native_offset" : "0x0",
"filename" : "mscorlib.dll",
"sizeofimage" : "0x472000",
"timestamp" : "0x99dbfea7",
"il_offset" : "0x0003c"
}
,
{
"is_managed" : "true",
"guid" : "533173D2-4DAE-4608-99D2-B10975534BB0",
"token" : "0x6002295",
"native_offset" : "0x0",
"filename" : "mscorlib.dll",
"sizeofimage" : "0x472000",
"timestamp" : "0x99dbfea7",
"il_offset" : "0x0004f"
}
,
{
"is_managed" : "true",
"guid" : "533173D2-4DAE-4608-99D2-B10975534BB0",
"token" : "0x00000",
"native_offset" : "0x0",
"filename" : "mscorlib.dll",
"sizeofimage" : "0x472000",
"timestamp" : "0x99dbfea7",
"il_offset" : "0x0002a"
}

],
"unmanaged_frames" : [
{
"is_managed" : "false",
"native_address" : "0x559018892b52",
"native_offset" : "0x00000"
}
,
{
"is_managed" : "false",
"native_address" : "0x559018a88b39",
"native_offset" : "0x00000"
}
,
{
"is_managed" : "false",
"native_address" : "0x559018a89d42",
"native_offset" : "0x00000"
}
,
{
"is_managed" : "false",
"native_address" : "0x559018a93247",
"native_offset" : "0x00000"
}
,
{
"is_managed" : "false",
"native_address" : "0x5590188e70df",
"native_offset" : "0x00000"
}
,
{
"is_managed" : "false",
"native_address" : "0x7f5a729cf3c0",
"native_offset" : "0x00000"
}
,
{
"is_managed" : "false",
"native_address" : "0x7f5a729ca376",
"native_offset" : "0x00000"
}
,
{
"is_managed" : "false",
"native_address" : "0x559018b40a68",
"native_offset" : "0x00000"
}
,
{
"is_managed" : "false",
"native_address" : "0x559018a9dc7a",
"native_offset" : "0x00000"
}
,
{
"is_managed" : "false",
"native_address" : "0x559018a9f27a",
"native_offset" : "0x00000"
}
,
{
"is_managed" : "false",
"native_address" : "0x559018a9fb10",
"native_offset" : "0x00000"
}
,
{
"is_managed" : "false",
"native_address" : "0x559018a8ff9a",
"native_offset" : "0x00000"
}
,
{
"is_managed" : "false",
"native_address" : "0x559018a249a6",
"native_offset" : "0x00000"
}
,
{
"is_managed" : "true",
"guid" : "533173D2-4DAE-4608-99D2-B10975534BB0",
"token" : "0x00000",
"native_offset" : "0x0",
"filename" : "mscorlib.dll",
"sizeofimage" : "0x472000",
"timestamp" : "0x99dbfea7",
"il_offset" : "0x00000"
}

]
},
{
"is_managed" : true,
"offset_free_hash" : "0x39aed1bc2",
"offset_rich_hash" : "0x39aed1c0b",
"crashed" : false,
"native_thread_id" : "0x7f5a4daf7700",
"thread_info_addr" : "0x7f5a3c000b60",
"thread_name" : "mono",
"ctx" : {
"IP" : "0x7f5a729ca7b1",
"SP" : "0x7f5a4daf66b0",
"BP" : "0x559018cd0860"
},
"managed_frames" : [
{
"is_managed" : "false",
"native_address" : "unregistered"
}
,
{
"is_managed" : "true",
"guid" : "533173D2-4DAE-4608-99D2-B10975534BB0",
"token" : "0x00000",
"native_offset" : "0x0",
"filename" : "mscorlib.dll",
"sizeofimage" : "0x472000",
"timestamp" : "0x99dbfea7",
"il_offset" : "0x00000"
}
,
{
"is_managed" : "true",
"guid" : "533173D2-4DAE-4608-99D2-B10975534BB0",
"token" : "0x6001f43",
"native_offset" : "0x0",
"filename" : "mscorlib.dll",
"sizeofimage" : "0x472000",
"timestamp" : "0x99dbfea7",
"il_offset" : "0x00019"
}
,
{
"is_managed" : "true",
"guid" : "DBECEC62-1A53-4250-A09E-1E68524C198B",
"token" : "0x6000109",
"native_offset" : "0x0",
"filename" : "OmniSharp.Shared.dll",
"sizeofimage" : "0x14000",
"timestamp" : "0x83839f42",
"il_offset" : "0x00006"
}
,
{
"is_managed" : "true",
"guid" : "533173D2-4DAE-4608-99D2-B10975534BB0",
"token" : "0x00000",
"native_offset" : "0x0",
"filename" : "mscorlib.dll",
"sizeofimage" : "0x472000",
"timestamp" : "0x99dbfea7",
"il_offset" : "0x0002a"
}

],
"unmanaged_frames" : [
{
"is_managed" : "false",
"native_address" : "0x559018892b52",
"native_offset" : "0x00000"
}
,
{
"is_managed" : "false",
"native_address" : "0x559018a88b39",
"native_offset" : "0x00000"
}
,
{
"is_managed" : "false",
"native_address" : "0x559018a89d42",
"native_offset" : "0x00000"
}
,
{
"is_managed" : "false",
"native_address" : "0x559018a93247",
"native_offset" : "0x00000"
}
,
{
"is_managed" : "false",
"native_address" : "0x5590188e70df",
"native_offset" : "0x00000"
}
,
{
"is_managed" : "false",
"native_address" : "0x7f5a729cf3c0",
"native_offset" : "0x00000"
}
,
{
"is_managed" : "false",
"native_address" : "0x7f5a729ca7b1",
"native_offset" : "0x00000"
}
,
{
"is_managed" : "false",
"native_address" : "0x559018b40a0e",
"native_offset" : "0x00000"
}
,
{
"is_managed" : "false",
"native_address" : "0x559018b4b7d9",
"native_offset" : "0x00000"
}
,
{
"is_managed" : "false",
"native_address" : "0x559018a90226",
"native_offset" : "0x00000"
}
,
{
"is_managed" : "false",
"native_address" : "0x559018a23bf0",
"native_offset" : "0x00000"
}
,
{
"is_managed" : "true",
"guid" : "533173D2-4DAE-4608-99D2-B10975534BB0",
"token" : "0x00000",
"native_offset" : "0x0",
"filename" : "mscorlib.dll",
"sizeofimage" : "0x472000",
"timestamp" : "0x99dbfea7",
"il_offset" : "0x00000"
}

]
},
{
"is_managed" : false,
"offset_free_hash" : "0x0",
"offset_rich_hash" : "0x0",
"crashed" : false,
"native_thread_id" : "0x7f5a4d16a700",
"thread_info_addr" : "0x7f5a34000b60",
"thread_name" : "Thread Pool Wor",
"ctx" : {
"IP" : "0x7f5a729cd618",
"SP" : "0x7f5a4d169c70",
"BP" : "0x559018cc1d88"
},
"unmanaged_frames" : [
{
"is_managed" : "false",
"native_address" : "0x559018892b52",
"native_offset" : "0x00000"
}
,
{
"is_managed" : "false",
"native_address" : "0x559018a88b39",
"native_offset" : "0x00000"
}
,
{
"is_managed" : "false",
"native_address" : "0x559018a89d42",
"native_offset" : "0x00000"
}
,
{
"is_managed" : "false",
"native_address" : "0x559018a93247",
"native_offset" : "0x00000"
}
,
{
"is_managed" : "false",
"native_address" : "0x5590188e70df",
"native_offset" : "0x00000"
}
,
{
"is_managed" : "false",
"native_address" : "0x7f5a729cf3c0",
"native_offset" : "0x00000"
}
,
{
"is_managed" : "false",
"native_address" : "0x7f5a729cd618",
"native_offset" : "0x00000"
}
,
{
"is_managed" : "false",
"native_address" : "0x7f5a729cd743",
"native_offset" : "0x00000"
}
,
{
"is_managed" : "false",
"native_address" : "0x559018ae52b8",
"native_offset" : "0x00000"
}
,
{
"is_managed" : "false",
"native_address" : "0x559018a92afa",
"native_offset" : "0x00000"
}
,
{
"is_managed" : "false",
"native_address" : "0x7f5a729c3609",
"native_offset" : "0x00000"
}
,
{
"is_managed" : "false",
"native_address" : "0x7f5a7259c293",
"native_offset" : "0x00000"
}

]
},
{
"is_managed" : true,
"offset_free_hash" : "0x3fa205b50",
"offset_rich_hash" : "0x3fa205bc1",
"crashed" : false,
"native_thread_id" : "0x7f5a4d76b700",
"thread_info_addr" : "0x7f5a30000b60",
"thread_name" : "In-proc Node (D",
"ctx" : {
"IP" : "0x7f5a729ca376",
"SP" : "0x7f5a4d769f40",
"BP" : "0x559018cc1020"
},
"managed_frames" : [
{
"is_managed" : "false",
"native_address" : "unregistered"
}
,
{
"is_managed" : "true",
"guid" : "533173D2-4DAE-4608-99D2-B10975534BB0",
"token" : "0x00000",
"native_offset" : "0x0",
"filename" : "mscorlib.dll",
"sizeofimage" : "0x472000",
"timestamp" : "0x99dbfea7",
"il_offset" : "0x00000"
}
,
{
"is_managed" : "true",
"guid" : "533173D2-4DAE-4608-99D2-B10975534BB0",
"token" : "0x6002047",
"native_offset" : "0x0",
"filename" : "mscorlib.dll",
"sizeofimage" : "0x472000",
"timestamp" : "0x99dbfea7",
"il_offset" : "0x00000"
}
,
{
"is_managed" : "true",
"guid" : "F5C26A75-6012-4A5F-9B72-55EB2A34A9A9",
"token" : "0x600127d",
"native_offset" : "0x0",
"filename" : "Microsoft.Build.dll",
"sizeofimage" : "0x1e6000",
"timestamp" : "0xd74c9315",
"il_offset" : "0x00047"
}
,
{
"is_managed" : "true",
"guid" : "F5C26A75-6012-4A5F-9B72-55EB2A34A9A9",
"token" : "0x600149c",
"native_offset" : "0x0",
"filename" : "Microsoft.Build.dll",
"sizeofimage" : "0x1e6000",
"timestamp" : "0xd74c9315",
"il_offset" : "0x00000"
}
,
{
"is_managed" : "true",
"guid" : "533173D2-4DAE-4608-99D2-B10975534BB0",
"token" : "0x00000",
"native_offset" : "0x0",
"filename" : "mscorlib.dll",
"sizeofimage" : "0x472000",
"timestamp" : "0x99dbfea7",
"il_offset" : "0x0002a"
}

],
"unmanaged_frames" : [
{
"is_managed" : "false",
"native_address" : "0x559018892b52",
"native_offset" : "0x00000"
}
,
{
"is_managed" : "false",
"native_address" : "0x559018a88b39",
"native_offset" : "0x00000"
}
,
{
"is_managed" : "false",
"native_address" : "0x559018a89d42",
"native_offset" : "0x00000"
}
,
{
"is_managed" : "false",
"native_address" : "0x559018a93247",
"native_offset" : "0x00000"
}
,
{
"is_managed" : "false",
"native_address" : "0x5590188e70df",
"native_offset" : "0x00000"
}
,
{
"is_managed" : "false",
"native_address" : "0x7f5a729cf3c0",
"native_offset" : "0x00000"
}
,
{
"is_managed" : "false",
"native_address" : "0x7f5a729ca376",
"native_offset" : "0x00000"
}
,
{
"is_managed" : "false",
"native_address" : "0x559018b40a68",
"native_offset" : "0x00000"
}
,
{
"is_managed" : "false",
"native_address" : "0x559018a9d4f6",
"native_offset" : "0x00000"
}
,
{
"is_managed" : "false",
"native_address" : "0x559018a9fabb",
"native_offset" : "0x00000"
}
,
{
"is_managed" : "false",
"native_address" : "0x559018a8ff9a",
"native_offset" : "0x00000"
}
,
{
"is_managed" : "false",
"native_address" : "0x559018a249a6",
"native_offset" : "0x00000"
}
,
{
"is_managed" : "true",
"guid" : "533173D2-4DAE-4608-99D2-B10975534BB0",
"token" : "0x00000",
"native_offset" : "0x0",
"filename" : "mscorlib.dll",
"sizeofimage" : "0x472000",
"timestamp" : "0x99dbfea7",
"il_offset" : "0x00000"
}

]
},
{
"is_managed" : false,
"offset_free_hash" : "0x0",
"offset_rich_hash" : "0x0",
"crashed" : false,
"native_thread_id" : "0x7f5a0cfef700",
"thread_info_addr" : "0x7f59ec000b60",
"thread_name" : "Thread Pool Wor",
"ctx" : {
"IP" : "0x7f5a729cd618",
"SP" : "0x7f5a0cfeec70",
"BP" : "0x559018cc1d88"
},
"unmanaged_frames" : [
{
"is_managed" : "false",
"native_address" : "0x559018892b52",
"native_offset" : "0x00000"
}
,
{
"is_managed" : "false",
"native_address" : "0x559018a88b39",
"native_offset" : "0x00000"
}
,
{
"is_managed" : "false",
"native_address" : "0x559018a89d42",
"native_offset" : "0x00000"
}
,
{
"is_managed" : "false",
"native_address" : "0x559018a93247",
"native_offset" : "0x00000"
}
,
{
"is_managed" : "false",
"native_address" : "0x5590188e70df",
"native_offset" : "0x00000"
}
,
{
"is_managed" : "false",
"native_address" : "0x7f5a729cf3c0",
"native_offset" : "0x00000"
}
,
{
"is_managed" : "false",
"native_address" : "0x7f5a729cd618",
"native_offset" : "0x00000"
}
,
{
"is_managed" : "false",
"native_address" : "0x7f5a729cd743",
"native_offset" : "0x00000"
}
,
{
"is_managed" : "false",
"native_address" : "0x559018ae52b8",
"native_offset" : "0x00000"
}
,
{
"is_managed" : "false",
"native_address" : "0x559018a92afa",
"native_offset" : "0x00000"
}
,
{
"is_managed" : "false",
"native_address" : "0x7f5a729c3609",
"native_offset" : "0x00000"
}
,
{
"is_managed" : "false",
"native_address" : "0x7f5a7259c293",
"native_offset" : "0x00000"
}

]
}
]
}