{
    "name": "RancherClient",
    "rootNamespace": "RancherX",
    "references": [
        "GUID:f2d49d9fa7e7eb3418e39723a7d3b92f",
        "GUID:e0cd26848372d4e5c891c569017e11f1",
        "GUID:bd7c661ed512f2c43b8099c4babe1a98"
    ],
    "includePlatforms": [],
    "excludePlatforms": [],
    "allowUnsafeCode": false,
    "overrideReferences": false,
    "precompiledReferences": [],
    "autoReferenced": true,
    "defineConstraints": [],
    "versionDefines": [],
    "noEngineReferences": false
}